@relation Starcraft_ZvZ_Zerg

@attribute ZergPool numeric
@attribute ZergOverlord numeric
@attribute ZergZergling numeric
@attribute ZergZerglingSpeed numeric
@attribute ZergCrackling numeric
@attribute ZergBurrow numeric
@attribute ZergGas numeric
@attribute ZergSecondGas numeric
@attribute ZergSecondHatch numeric
@attribute ZergThirdHatch numeric
@attribute ZergFourthHatch numeric
@attribute ZergFifthHatch numeric
@attribute ZergSixthHatch numeric
@attribute ZergSeventhHatch numeric
@attribute ZergHydraDen numeric
@attribute ZergHydra numeric
@attribute ZergHydraRange numeric
@attribute ZergHydraSpeed numeric
@attribute ZergLurker numeric
@attribute ZergLair numeric
@attribute ZergSpire numeric
@attribute ZergMutalisk numeric
@attribute ZergScourge numeric
@attribute ZergAirAttack numeric
@attribute ZergAirArmor numeric
@attribute ZergQueenNest numeric
@attribute ZergQueen numeric
@attribute ZergHive numeric
@attribute ZergGreaterSpire numeric
@attribute ZergGardian numeric
@attribute ZergDevour numeric
@attribute ZergUltraliskCavern numeric
@attribute ZergUltralisk numeric
@attribute ZergUltraliskArmor numeric
@attribute ZergUltraliskSpeed numeric
@attribute ZergDefilerMound numeric
@attribute ZergDefiler numeric
@attribute ZergConsume numeric
@attribute ZergevoDen numeric
@attribute ZergMeleeWeapons1 numeric
@attribute ZergRangeWeapons1 numeric
@attribute ZergGroundArmor1 numeric
@attribute ZergMeleeWeapons2 numeric
@attribute ZergRangeWeapons2 numeric
@attribute ZergGroundArmor2 numeric
@attribute ZergCreep numeric
@attribute ZergSunken numeric
@attribute ZergSpore numeric
@attribute midBuild {fast_mutas,mutas,lurkers,hydras,unknown}
@data
1665,2809,3317,-1,-1,-1,1984,7724,5766,23566,-1,-1,-1,-1,-1,-1,-1,-1,-1,3334,4886,7319,8737,-1,-1,-1,-1,-1,-1,-1,-1,-1,-1,-1,-1,-1,-1,-1,-1,-1,-1,-1,-1,-1,-1,-1,-1,-1,
1947,1941,3615,-1,-1,-1,2042,7818,5606,6709,21358,22652,-1,-1,-1,-1,-1,-1,-1,3516,5077,7557,7421,-1,-1,-1,-1,-1,-1,-1,-1,-1,-1,-1,-1,-1,-1,-1,23590,-1,-1,-1,-1,-1,-1,23629,-1,24204,
1911,2003,3599,12671,21973,25175,9219,9964,3129,4617,17719,-1,-1,-1,-1,-1,-1,-1,-1,11548,13215,15723,16021,-1,-1,13199,-1,14528,16378,25931,-1,24151,-1,-1,-1,-1,-1,-1,7720,27213,-1,-1,-1,-1,-1,5350,5680,8456,
1992,2003,3657,4979,-1,-1,2228,10843,8001,9517,18206,-1,-1,-1,17669,19107,21367,19815,-1,4122,6150,8625,25879,-1,18667,-1,-1,-1,-1,-1,-1,-1,-1,-1,-1,-1,-1,-1,21810,-1,26787,-1,-1,-1,-1,6432,13392,-1,
3090,1959,4754,7446,-1,-1,3823,-1,2621,-1,-1,-1,-1,-1,-1,-1,-1,-1,-1,5650,-1,-1,-1,-1,-1,-1,-1,-1,-1,-1,-1,-1,-1,-1,-1,-1,-1,-1,6195,-1,-1,-1,-1,-1,-1,3651,4340,8215,
1690,2864,3374,22011,-1,-1,1965,-1,6870,-1,-1,-1,-1,-1,-1,-1,-1,-1,-1,3360,5304,-1,-1,26801,-1,-1,-1,-1,-1,-1,-1,-1,-1,-1,-1,-1,-1,-1,-1,-1,-1,-1,-1,-1,-1,4968,5305,-1,
1975,2025,3649,-1,-1,-1,2103,20208,6479,-1,-1,-1,-1,-1,-1,-1,-1,-1,-1,3424,4989,7945,7315,-1,-1,-1,-1,-1,-1,-1,-1,-1,-1,-1,-1,-1,-1,-1,-1,-1,-1,-1,-1,-1,-1,-1,-1,-1,
1567,2745,3267,11149,-1,-1,1898,9468,6817,10821,-1,-1,-1,-1,-1,-1,-1,-1,-1,3286,4914,7375,10519,-1,-1,-1,-1,-1,-1,-1,-1,-1,-1,-1,-1,-1,-1,-1,-1,-1,-1,-1,-1,-1,-1,-1,-1,-1,
1999,2055,3689,-1,-1,-1,-1,-1,3707,4506,-1,-1,-1,-1,-1,-1,-1,-1,-1,-1,-1,-1,-1,-1,-1,-1,-1,-1,-1,-1,-1,-1,-1,-1,-1,-1,-1,-1,-1,-1,-1,-1,-1,-1,-1,5086,6090,-1,
2434,2209,4111,5805,-1,-1,1329,2571,3912,12849,-1,-1,-1,-1,-1,-1,-1,-1,-1,5142,6768,18681,-1,-1,-1,-1,-1,-1,-1,-1,-1,-1,-1,-1,-1,-1,-1,-1,24688,29487,-1,-1,-1,-1,-1,-1,-1,-1,
3190,1965,4859,6709,-1,-1,3259,9632,2527,-1,-1,-1,-1,-1,-1,-1,-1,-1,-1,4520,6108,8625,9561,-1,-1,-1,-1,-1,-1,-1,-1,-1,-1,-1,-1,-1,-1,-1,-1,-1,-1,-1,-1,-1,-1,-1,-1,-1,
3271,2015,4949,6581,-1,-1,3396,8366,2608,-1,-1,-1,-1,-1,-1,-1,-1,-1,-1,4592,6184,8639,10331,-1,-1,-1,-1,-1,-1,-1,-1,-1,-1,-1,-1,-1,-1,-1,-1,-1,-1,-1,-1,-1,-1,15788,-1,-1,
2957,1967,-1,27821,29889,-1,3157,5305,2592,7020,14173,15943,-1,-1,-1,-1,-1,-1,-1,4456,6013,8451,10159,23811,12085,21120,-1,22096,28310,-1,-1,-1,-1,-1,-1,-1,-1,-1,-1,-1,-1,-1,-1,-1,-1,-1,-1,-1,
2918,1941,4675,36419,-1,-1,3219,5588,2758,6573,13946,20927,-1,-1,-1,-1,-1,-1,-1,4462,6054,8501,10495,-1,13465,21312,-1,22956,25194,-1,-1,-1,-1,-1,-1,25388,-1,28317,15128,-1,-1,-1,-1,-1,-1,15441,-1,15788,
1875,1969,3569,19781,-1,-1,6523,8564,3130,4225,26455,-1,-1,-1,-1,-1,-1,-1,-1,8240,-1,-1,-1,-1,-1,-1,-1,-1,-1,-1,-1,-1,-1,-1,-1,-1,-1,-1,8066,-1,-1,-1,-1,-1,-1,6531,6865,9305,
2995,1979,4674,5891,-1,-1,3143,-1,2510,-1,-1,-1,-1,-1,-1,-1,-1,-1,-1,4805,6679,-1,-1,-1,16226,-1,-1,-1,-1,-1,-1,-1,-1,-1,-1,-1,-1,-1,-1,-1,-1,-1,-1,-1,-1,-1,-1,-1,
1653,2765,3305,-1,-1,-1,1917,-1,16071,-1,-1,-1,-1,-1,-1,-1,-1,-1,-1,3494,5051,-1,-1,-1,11303,-1,-1,-1,-1,-1,-1,-1,-1,-1,-1,-1,-1,-1,-1,-1,-1,-1,-1,-1,-1,5145,5530,-1,
2343,1901,4015,5359,-1,-1,2370,-1,3449,5524,-1,-1,-1,-1,-1,-1,-1,-1,-1,4490,6069,10477,-1,-1,-1,-1,-1,-1,-1,-1,-1,-1,-1,-1,-1,-1,-1,-1,-1,-1,-1,-1,-1,-1,-1,7482,-1,-1,
3148,1917,5163,6159,-1,-1,2704,6322,2509,-1,-1,-1,-1,-1,-1,-1,-1,-1,-1,4392,5951,8395,8753,-1,-1,-1,-1,-1,-1,-1,-1,-1,-1,-1,-1,-1,-1,-1,-1,-1,-1,-1,-1,-1,-1,-1,-1,-1,
3156,1919,5079,6435,-1,-1,3241,5893,2440,-1,-1,-1,-1,-1,-1,-1,-1,-1,-1,4490,6032,8473,9007,-1,-1,-1,-1,-1,-1,-1,-1,-1,-1,-1,-1,-1,-1,-1,-1,-1,-1,-1,-1,-1,-1,-1,-1,-1,
2619,1944,4204,27565,-1,-1,2747,6260,3228,7782,20571,26087,-1,-1,-1,-1,-1,-1,-1,4066,5489,8003,7393,25179,16305,28012,-1,28906,30552,-1,-1,-1,-1,-1,-1,-1,-1,-1,28040,-1,-1,-1,-1,-1,-1,21632,21984,28952,
2899,1866,4462,36931,-1,-1,3042,6420,2491,9505,14625,20026,-1,-1,-1,-1,-1,-1,-1,4204,5842,7911,12873,23047,12875,29401,-1,30346,32370,-1,-1,-1,-1,-1,-1,33348,-1,36381,13990,-1,-1,-1,-1,-1,-1,4859,5186,14538,
1899,1947,3685,-1,-1,-1,2013,-1,5378,-1,-1,-1,-1,-1,-1,-1,-1,-1,-1,3226,4894,7337,8365,-1,-1,-1,-1,-1,-1,-1,-1,-1,-1,-1,-1,-1,-1,-1,-1,-1,-1,-1,-1,-1,-1,6413,6732,-1,
2531,2143,4245,6007,-1,-1,1401,2487,4351,13912,-1,-1,-1,-1,-1,-1,-1,-1,-1,3756,5378,7843,8745,-1,-1,-1,-1,-1,-1,-1,-1,-1,-1,-1,-1,-1,-1,-1,11777,-1,-1,-1,-1,-1,-1,11917,-1,12402,
2724,3551,4391,-1,-1,-1,1533,2302,2162,6479,-1,-1,-1,-1,-1,-1,-1,-1,-1,-1,-1,-1,-1,-1,-1,-1,-1,-1,-1,-1,-1,-1,-1,-1,-1,-1,-1,-1,-1,-1,-1,-1,-1,-1,-1,5548,-1,-1,
2228,1995,4781,14039,-1,16227,2458,-1,3386,5675,-1,-1,-1,-1,-1,-1,-1,-1,-1,4226,6929,-1,-1,-1,17071,-1,-1,-1,-1,-1,-1,-1,-1,-1,-1,-1,-1,-1,-1,-1,-1,-1,-1,-1,-1,-1,-1,-1,
2474,1903,4141,21315,-1,-1,2507,-1,3210,-1,-1,-1,-1,-1,-1,-1,-1,-1,-1,3806,5349,7907,-1,-1,16287,-1,-1,-1,-1,-1,-1,-1,-1,-1,-1,-1,-1,-1,-1,-1,-1,-1,-1,-1,-1,6041,-1,-1,
2275,1945,3943,-1,-1,-1,2764,-1,3151,9397,-1,-1,-1,-1,-1,-1,-1,-1,-1,4094,5685,8121,8345,-1,17171,-1,-1,-1,-1,-1,-1,-1,-1,-1,-1,-1,-1,-1,-1,-1,-1,-1,-1,-1,-1,16652,-1,-1,
1673,2779,3337,4623,-1,-1,1919,-1,-1,-1,-1,-1,-1,-1,-1,-1,-1,-1,-1,3740,6894,9371,-1,-1,-1,-1,-1,-1,-1,-1,-1,-1,-1,-1,-1,-1,-1,-1,-1,-1,-1,-1,-1,-1,-1,5319,5654,-1,
1716,2775,3383,4707,-1,-1,1910,-1,4305,6072,-1,-1,-1,-1,-1,-1,-1,-1,-1,-1,-1,-1,-1,-1,-1,-1,-1,-1,-1,-1,-1,-1,-1,-1,-1,-1,-1,-1,-1,-1,-1,-1,-1,-1,-1,-1,-1,-1,
1936,1973,3605,5389,-1,-1,2197,9825,7290,-1,-1,-1,-1,-1,-1,-1,-1,-1,-1,3400,4974,7411,11659,-1,22637,-1,-1,-1,-1,-1,-1,-1,-1,-1,-1,-1,-1,-1,-1,-1,-1,-1,-1,-1,-1,-1,-1,-1,
2280,1947,3959,-1,-1,-1,2437,9895,3228,12315,-1,-1,-1,-1,-1,-1,-1,-1,-1,4102,5742,8185,8083,-1,33341,-1,-1,-1,-1,-1,-1,-1,-1,-1,-1,-1,-1,-1,13989,-1,-1,-1,-1,-1,-1,5226,5580,19012,
1599,2743,3261,4635,-1,-1,1941,-1,6521,-1,-1,-1,-1,-1,-1,-1,-1,-1,-1,3818,5400,7847,-1,-1,-1,-1,-1,-1,-1,-1,-1,-1,-1,-1,-1,-1,-1,-1,-1,-1,-1,-1,-1,-1,-1,-1,-1,-1,
2289,2007,3953,10125,-1,-1,1790,13358,6023,15922,42431,-1,-1,-1,-1,-1,-1,-1,-1,3658,5325,7773,-1,-1,31655,-1,-1,-1,-1,-1,-1,-1,-1,-1,-1,-1,-1,-1,-1,-1,-1,-1,-1,-1,-1,3460,3794,-1,
1880,1965,3555,4941,-1,-1,2185,-1,-1,-1,-1,-1,-1,-1,-1,-1,-1,-1,-1,4110,5721,-1,-1,-1,-1,-1,-1,-1,-1,-1,-1,-1,-1,-1,-1,-1,-1,-1,-1,-1,-1,-1,-1,-1,-1,5978,6520,-1,
1975,1927,5123,-1,-1,-1,2006,-1,-1,-1,-1,-1,-1,-1,-1,-1,-1,-1,-1,3406,-1,-1,-1,-1,-1,-1,-1,-1,-1,-1,-1,-1,-1,-1,-1,-1,-1,-1,-1,-1,-1,-1,-1,-1,-1,2759,4388,-1,
1916,1945,5085,-1,-1,-1,2022,-1,-1,-1,-1,-1,-1,-1,-1,-1,-1,-1,-1,3226,4780,7221,-1,-1,10635,-1,-1,-1,-1,-1,-1,-1,-1,-1,-1,-1,-1,-1,-1,-1,-1,-1,-1,-1,-1,3523,3848,-1,
2818,1887,4475,6321,-1,-1,2958,-1,2434,-1,-1,-1,-1,-1,-1,-1,-1,-1,-1,4194,5946,-1,-1,-1,-1,-1,-1,-1,-1,-1,-1,-1,-1,-1,-1,-1,-1,-1,7070,-1,-1,-1,-1,-1,-1,-1,-1,-1,
3072,1969,4867,19981,-1,-1,5571,9652,2599,4382,13754,18402,20812,23570,9014,10107,14331,11893,-1,11022,13093,15589,16071,-1,22555,23128,-1,24086,-1,-1,-1,-1,-1,-1,-1,-1,-1,-1,5363,-1,16281,11695,-1,-1,25547,6071,8850,7114,
2230,1913,4867,9729,-1,-1,2385,11893,4375,7020,10906,15090,16143,25267,7874,10693,21201,14817,11841,3640,5273,-1,11975,-1,-1,14918,-1,24912,-1,-1,-1,-1,-1,-1,-1,-1,-1,-1,10471,-1,-1,15689,-1,-1,-1,3695,4012,18504,
1738,2773,3417,4703,-1,-1,1834,-1,4660,7179,-1,-1,-1,-1,-1,-1,-1,-1,-1,-1,-1,-1,-1,-1,-1,-1,-1,-1,-1,-1,-1,-1,-1,-1,-1,-1,-1,-1,-1,-1,-1,-1,-1,-1,-1,-1,-1,-1,
2215,1915,3881,5855,-1,-1,3110,-1,3033,-1,-1,-1,-1,-1,-1,-1,-1,-1,-1,4888,-1,-1,-1,-1,-1,-1,-1,-1,-1,-1,-1,-1,-1,-1,-1,-1,-1,-1,-1,-1,-1,-1,-1,-1,-1,10042,10444,-1,
1225,2439,2889,7836,-1,-1,4997,-1,4980,-1,-1,-1,-1,-1,-1,-1,-1,-1,-1,6705,-1,-1,-1,-1,-1,-1,-1,-1,-1,-1,-1,-1,-1,-1,-1,-1,-1,-1,8214,-1,-1,-1,-1,-1,-1,4193,-1,8825,
2698,1989,4429,8786,-1,-1,2573,13018,6079,10507,-1,-1,-1,-1,-1,-1,-1,-1,-1,4535,-1,-1,-1,-1,-1,-1,-1,-1,-1,-1,-1,-1,-1,-1,-1,-1,-1,-1,-1,-1,-1,-1,-1,-1,-1,3623,4060,-1,
2934,2294,13039,-1,-1,-1,1047,-1,5200,16708,17354,-1,-1,-1,-1,-1,-1,-1,-1,4270,5976,8419,15864,12091,-1,-1,-1,-1,-1,-1,-1,-1,-1,-1,-1,-1,-1,-1,6731,-1,-1,-1,-1,-1,-1,6908,-1,7380,
2566,2059,-1,-1,-1,-1,1763,10435,4405,8132,8899,12984,18766,-1,-1,-1,-1,-1,-1,3790,5569,9764,7874,-1,14651,-1,-1,-1,-1,-1,-1,-1,-1,-1,-1,-1,-1,-1,9253,-1,-1,-1,-1,-1,-1,9728,-1,10230,
1574,2847,3311,-1,-1,-1,1984,10313,5489,9168,-1,-1,-1,-1,-1,-1,-1,-1,-1,3180,4743,7181,9159,-1,-1,-1,-1,-1,-1,-1,-1,-1,-1,-1,-1,-1,-1,-1,-1,-1,-1,-1,-1,-1,-1,-1,-1,-1,
1594,2715,3251,-1,-1,-1,1996,17196,5551,15249,-1,-1,-1,-1,-1,-1,-1,-1,-1,3330,4886,7327,7175,-1,-1,-1,-1,-1,-1,-1,-1,-1,-1,-1,-1,-1,-1,-1,-1,-1,-1,-1,-1,-1,-1,-1,-1,-1,
3269,2074,4934,6181,-1,-1,3478,13408,2800,10783,20868,-1,-1,-1,-1,-1,-1,-1,-1,5290,6885,9344,9389,28311,23101,30899,-1,32080,-1,-1,-1,-1,-1,-1,-1,-1,-1,-1,15178,-1,-1,-1,-1,-1,-1,15172,15540,15900,
2286,1964,3959,6536,-1,-1,3257,10723,3110,8999,-1,-1,-1,-1,-1,-1,-1,-1,-1,4610,6174,13584,8484,27971,26396,22613,-1,23700,26620,-1,-1,-1,-1,-1,-1,25590,-1,28041,15466,-1,-1,-1,-1,-1,-1,13462,13815,16115,
2489,1885,4145,5219,-1,-1,2531,9652,3159,-1,-1,-1,-1,-1,-1,-1,-1,-1,-1,9014,10772,14399,13259,-1,16701,15855,-1,16866,18744,-1,-1,-1,-1,-1,-1,-1,-1,-1,6875,-1,-1,-1,-1,-1,-1,7156,8856,7616,
1548,2685,3217,4569,-1,-1,1852,10752,8674,19645,-1,-1,-1,-1,-1,-1,-1,-1,-1,3816,5402,7835,19321,-1,20431,-1,-1,-1,-1,-1,-1,-1,-1,-1,-1,-1,-1,-1,22995,-1,-1,-1,-1,-1,-1,5937,6274,24378,
2299,1985,4217,37893,-1,-1,2537,6289,3338,22231,23767,25015,52256,59739,-1,-1,-1,-1,-1,4578,6128,8575,63071,16237,12077,12360,17463,14464,16282,30975,-1,-1,-1,-1,-1,21079,23239,23515,15136,-1,-1,-1,-1,-1,-1,3561,3958,15770,
2357,1999,4019,5287,29999,26237,2391,6622,3502,15624,28148,31490,47828,59734,27806,-1,-1,-1,-1,4494,6140,9519,8709,16131,11993,22558,-1,23506,30702,-1,-1,-1,-1,-1,-1,25490,27231,29627,7286,50405,31833,-1,-1,-1,-1,8017,51570,8358,
1849,1917,3513,5375,-1,-1,2114,-1,-1,-1,-1,-1,-1,-1,-1,-1,-1,-1,-1,3344,4935,7407,13209,-1,-1,-1,-1,-1,-1,-1,-1,-1,-1,-1,-1,-1,-1,-1,-1,-1,-1,-1,-1,-1,-1,6208,7004,-1,
2296,1933,3965,6131,-1,-1,2504,11320,3108,-1,-1,-1,-1,-1,-1,-1,-1,-1,-1,3900,5947,12743,12871,-1,-1,-1,-1,-1,-1,-1,-1,-1,-1,-1,-1,-1,-1,-1,7094,-1,-1,-1,-1,-1,-1,7408,-1,7740,
1580,2725,3245,4751,-1,-1,1990,24808,23794,-1,-1,-1,-1,-1,-1,-1,-1,-1,-1,4000,5866,8299,10587,-1,-1,-1,-1,-1,-1,-1,-1,-1,-1,-1,-1,-1,-1,-1,-1,-1,-1,-1,-1,-1,-1,-1,-1,-1,
2256,1999,3917,5119,-1,-1,2419,14996,3916,8960,-1,-1,-1,-1,-1,-1,-1,-1,-1,4658,6214,10599,8993,-1,13925,-1,-1,-1,-1,-1,-1,-1,-1,-1,-1,-1,-1,-1,19989,-1,-1,-1,-1,-1,-1,4365,4688,21096,
1744,2679,3404,5086,-1,-1,2287,-1,4547,-1,-1,-1,-1,-1,-1,-1,-1,-1,-1,5650,7509,-1,-1,-1,-1,-1,-1,-1,-1,-1,-1,-1,-1,-1,-1,-1,-1,-1,-1,-1,-1,-1,-1,-1,-1,-1,-1,-1,
3327,2069,5004,6941,-1,-1,4075,-1,2715,-1,-1,-1,-1,-1,-1,-1,-1,-1,-1,5865,8393,-1,-1,-1,-1,-1,-1,-1,-1,-1,-1,-1,-1,-1,-1,-1,-1,-1,-1,-1,-1,-1,-1,-1,-1,3830,4550,-1,
2689,2083,5003,5503,-1,-1,1708,-1,5038,11941,-1,-1,-1,-1,-1,-1,-1,-1,-1,3918,5637,8099,8349,-1,-1,-1,-1,-1,-1,-1,-1,-1,-1,-1,-1,-1,-1,-1,14055,-1,-1,-1,-1,-1,-1,6359,6690,14736,
3524,2017,5207,6255,-1,-1,2930,8503,2814,-1,-1,-1,-1,-1,-1,-1,-1,-1,-1,4740,6342,8793,8625,-1,-1,-1,-1,-1,-1,-1,-1,-1,-1,-1,-1,-1,-1,-1,7378,-1,-1,-1,-1,-1,-1,7961,-1,8278,
3773,1947,5441,-1,-1,-1,2130,2390,3013,-1,-1,-1,-1,-1,-1,-1,-1,-1,-1,6148,7879,10327,-1,-1,-1,-1,-1,-1,-1,-1,-1,-1,-1,-1,-1,-1,-1,-1,-1,-1,-1,-1,-1,-1,-1,4522,4986,-1,
2547,2017,4201,7929,-1,-1,4951,-1,3293,4770,-1,-1,-1,-1,-1,-1,-1,-1,-1,-1,-1,-1,-1,-1,-1,-1,-1,-1,-1,-1,-1,-1,-1,-1,-1,-1,-1,-1,-1,-1,-1,-1,-1,-1,-1,-1,-1,-1,
2807,1987,4479,6399,-1,-1,2172,2466,3807,-1,-1,-1,-1,-1,-1,-1,-1,-1,-1,4304,6395,8885,-1,-1,-1,-1,-1,-1,-1,-1,-1,-1,-1,-1,-1,-1,-1,-1,-1,-1,-1,-1,-1,-1,-1,-1,-1,-1,
3179,2043,4863,8671,-1,-1,5883,-1,2646,4483,6264,-1,-1,-1,8347,9419,-1,-1,-1,-1,-1,-1,-1,-1,-1,-1,-1,-1,-1,-1,-1,-1,-1,-1,-1,-1,-1,-1,-1,-1,-1,-1,-1,-1,-1,-1,-1,-1,
2690,1917,4379,-1,-1,-1,1494,-1,4351,-1,-1,-1,-1,-1,-1,-1,-1,-1,-1,3916,5583,8017,10041,-1,-1,-1,-1,-1,-1,-1,-1,-1,-1,-1,-1,-1,-1,-1,-1,-1,-1,-1,-1,-1,-1,4840,5204,-1,
2941,2015,4625,6897,-1,-1,3079,5981,2564,-1,-1,-1,-1,-1,-1,-1,-1,-1,-1,4300,5946,8395,8701,-1,-1,-1,-1,-1,-1,-1,-1,-1,-1,-1,-1,-1,-1,-1,9373,-1,-1,-1,-1,-1,-1,9655,-1,10026,
2378,1981,4057,29261,-1,-1,1611,2482,3428,14618,19421,21159,28221,29895,-1,-1,-1,-1,-1,4116,5670,8127,8041,-1,15995,15833,-1,16768,20690,-1,-1,-1,-1,-1,-1,-1,-1,-1,9488,-1,-1,-1,-1,-1,-1,6256,6594,10104,
2551,1925,5281,32375,34745,-1,1650,9285,4818,7617,18712,-1,-1,-1,-1,-1,-1,-1,-1,3770,5337,7865,24735,14907,29677,17015,-1,18394,20728,-1,-1,-1,-1,-1,-1,28629,30837,31055,14178,-1,-1,-1,-1,-1,-1,4039,4368,14894,
2299,1925,3965,5209,-1,-1,1634,16170,9342,-1,-1,-1,-1,-1,-1,-1,-1,-1,-1,3516,5157,7639,12099,-1,-1,-1,-1,-1,-1,-1,-1,-1,-1,-1,-1,-1,-1,-1,-1,-1,-1,-1,-1,-1,-1,-1,-1,-1,
2612,1887,4269,5585,-1,-1,2666,11101,3444,-1,-1,-1,-1,-1,-1,-1,-1,-1,-1,5218,9848,12311,-1,-1,15675,-1,-1,-1,-1,-1,-1,-1,-1,-1,-1,-1,-1,-1,7069,-1,-1,-1,-1,-1,-1,7530,10776,7970,
3576,2004,5414,6356,-1,-1,2011,-1,3007,-1,-1,-1,-1,-1,-1,-1,-1,-1,-1,4820,7074,9604,17219,-1,-1,-1,-1,-1,-1,-1,-1,-1,-1,-1,-1,-1,-1,-1,-1,-1,-1,-1,-1,-1,-1,-1,-1,-1,
3539,1929,5234,6511,-1,-1,2763,15921,2605,12940,-1,-1,-1,-1,-1,-1,-1,-1,-1,4760,6490,8959,12684,-1,-1,-1,-1,-1,-1,-1,-1,-1,-1,-1,-1,-1,-1,-1,-1,-1,-1,-1,-1,-1,-1,-1,-1,-1,
2490,1893,4211,5647,-1,-1,2532,7699,3200,-1,-1,-1,-1,-1,-1,-1,-1,-1,-1,3702,5265,7715,8701,-1,-1,-1,-1,-1,-1,-1,-1,-1,-1,-1,-1,-1,-1,-1,-1,-1,-1,-1,-1,-1,-1,-1,-1,-1,
2282,1871,4321,5639,-1,-1,2497,7320,3182,-1,-1,-1,-1,-1,-1,-1,-1,-1,-1,3732,5299,7751,9351,-1,-1,-1,-1,-1,-1,-1,-1,-1,-1,-1,-1,-1,-1,-1,-1,-1,-1,-1,-1,-1,-1,-1,-1,-1,
1559,2661,3213,5371,-1,-1,1912,12316,8818,10322,10824,-1,-1,-1,-1,-1,-1,-1,-1,3308,4955,7409,13639,-1,-1,-1,-1,-1,-1,-1,-1,-1,-1,-1,-1,-1,-1,-1,-1,-1,-1,-1,-1,-1,-1,6488,8150,-1,
2206,1929,3873,5287,-1,-1,2549,9292,3184,13373,-1,-1,-1,-1,-1,-1,-1,-1,-1,5120,8740,13045,-1,-1,-1,-1,-1,-1,-1,-1,-1,-1,-1,-1,-1,-1,-1,-1,6742,-1,-1,-1,-1,-1,-1,7160,-1,7518,
2250,1949,3913,-1,-1,-1,1564,-1,4745,-1,-1,-1,-1,-1,-1,-1,-1,-1,-1,3464,5027,7483,-1,-1,-1,-1,-1,-1,-1,-1,-1,-1,-1,-1,-1,-1,-1,-1,-1,-1,-1,-1,-1,-1,-1,5587,6994,-1,
2204,1879,3871,5235,-1,-1,2486,7442,3103,-1,-1,-1,-1,-1,-1,-1,-1,-1,-1,4436,6107,8791,8451,-1,-1,-1,-1,-1,-1,-1,-1,-1,-1,-1,-1,-1,-1,-1,6800,-1,-1,-1,-1,-1,-1,7129,-1,7482,
1580,2741,3251,-1,-1,-1,1876,11448,5787,10309,-1,-1,-1,-1,-1,-1,-1,-1,-1,3390,4955,7407,10949,-1,-1,-1,-1,-1,-1,-1,-1,-1,-1,-1,-1,-1,-1,-1,-1,-1,-1,-1,-1,-1,-1,-1,-1,-1,
2821,1885,4483,-1,-1,-1,2998,-1,2492,4729,-1,-1,-1,-1,-1,-1,-1,-1,-1,4178,5820,8299,8305,-1,-1,-1,-1,-1,-1,-1,-1,-1,-1,-1,-1,-1,-1,-1,-1,-1,-1,-1,-1,-1,-1,3600,4036,-1,
2223,1927,3891,5319,-1,-1,2591,10786,3118,5942,-1,-1,-1,-1,-1,-1,-1,-1,-1,4610,10577,13153,14989,-1,-1,-1,-1,-1,-1,-1,-1,-1,-1,-1,-1,-1,-1,-1,7123,-1,-1,-1,-1,-1,-1,7255,9034,7866,
1556,2649,3211,4547,-1,-1,1808,9460,7912,-1,-1,-1,-1,-1,-1,-1,-1,-1,-1,3764,5362,7805,15233,-1,13883,-1,-1,-1,-1,-1,-1,-1,-1,-1,-1,-1,-1,-1,-1,-1,-1,-1,-1,-1,-1,17096,-1,-1,
2159,1911,3845,5225,-1,-1,2488,9524,3083,-1,-1,-1,-1,-1,-1,-1,-1,-1,-1,4458,8536,10989,-1,-1,-1,-1,-1,-1,-1,-1,-1,-1,-1,-1,-1,-1,-1,-1,6436,-1,-1,-1,-1,-1,-1,6661,8012,7068,
1821,1905,3491,5393,-1,-1,2044,9931,8690,-1,-1,-1,-1,-1,-1,-1,-1,-1,-1,3240,4781,7233,11429,-1,-1,-1,-1,-1,-1,-1,-1,-1,-1,-1,-1,-1,-1,-1,-1,-1,-1,-1,-1,-1,-1,5723,6044,-1,
2255,1965,4145,5419,-1,-1,2526,10337,3281,13194,21992,23900,35549,-1,-1,-1,-1,-1,-1,4648,9580,15339,12203,25355,15589,-1,-1,-1,-1,-1,-1,-1,-1,-1,-1,-1,-1,-1,5987,-1,-1,-1,-1,-1,-1,6582,-1,6914,
1621,2757,3293,5293,-1,-1,1905,11169,8844,21199,24563,27003,28992,32115,-1,-1,-1,-1,-1,3508,5335,7787,-1,23861,14097,-1,-1,-1,-1,-1,-1,-1,-1,-1,-1,-1,-1,-1,23068,-1,-1,-1,-1,-1,-1,26762,27240,-1,
2573,1965,4285,6977,-1,-1,1574,12948,4537,12038,19537,30253,-1,-1,-1,-1,-1,-1,-1,3808,5429,7877,9195,26609,30715,-1,-1,-1,-1,-1,-1,-1,-1,-1,-1,-1,-1,-1,-1,-1,-1,-1,-1,-1,-1,34457,34790,-1,
2239,1957,4047,5603,-1,-1,2424,20935,4802,16646,18573,30388,-1,-1,-1,-1,-1,-1,-1,3654,5366,8647,7687,13601,27629,-1,-1,-1,-1,-1,-1,-1,-1,-1,-1,-1,-1,-1,8374,-1,-1,-1,-1,-1,-1,8457,22356,8988,
2154,1935,3905,-1,-1,-1,1565,-1,4469,13268,-1,-1,-1,-1,-1,-1,-1,-1,-1,3408,5038,7489,8433,-1,-1,-1,-1,-1,-1,-1,-1,-1,-1,-1,-1,-1,-1,-1,-1,-1,-1,-1,-1,-1,-1,-1,-1,-1,
2358,1893,4511,-1,-1,-1,2286,6568,3194,-1,-1,-1,-1,-1,-1,-1,-1,-1,-1,3692,5248,7717,9047,-1,-1,-1,-1,-1,-1,-1,-1,-1,-1,-1,-1,-1,-1,-1,-1,-1,-1,-1,-1,-1,-1,5557,5872,-1,
1629,2997,3479,-1,-1,-1,1918,19105,9652,17484,-1,-1,-1,-1,-1,-1,-1,-1,-1,3288,4962,7403,8709,-1,-1,-1,-1,-1,-1,-1,-1,-1,-1,-1,-1,-1,-1,-1,-1,-1,-1,-1,-1,-1,-1,3939,4278,-1,
1639,2759,3295,4593,-1,-1,1905,16612,7636,15688,-1,-1,-1,-1,-1,-1,-1,-1,-1,3880,5423,8959,7717,-1,-1,-1,-1,-1,-1,-1,-1,-1,-1,-1,-1,-1,-1,-1,15772,-1,-1,-1,-1,-1,-1,5983,6330,17342,
2852,2084,5159,10741,-1,-1,2979,8962,3784,6631,-1,-1,-1,-1,35456,-1,-1,-1,-1,4275,5830,10739,8404,28326,16646,-1,-1,-1,-1,-1,-1,-1,-1,-1,-1,-1,-1,-1,-1,-1,-1,-1,-1,-1,-1,8533,8880,-1,
2260,1999,5784,8401,-1,-1,2708,9404,4399,7104,-1,-1,-1,-1,-1,-1,-1,-1,-1,4000,5581,9649,7879,22976,14441,-1,-1,-1,-1,-1,-1,-1,-1,-1,-1,-1,-1,-1,-1,-1,-1,-1,-1,-1,-1,10619,-1,-1,
2350,1979,4621,12175,-1,-1,1747,-1,4120,-1,-1,-1,-1,-1,-1,-1,-1,-1,-1,3568,5290,7729,-1,-1,-1,-1,-1,-1,-1,-1,-1,-1,-1,-1,-1,-1,-1,-1,-1,-1,-1,-1,-1,-1,-1,5133,5456,-1,
2957,1825,4629,7683,-1,-1,3087,6638,2524,11621,-1,-1,-1,-1,-1,-1,-1,-1,-1,4306,5905,-1,8201,-1,-1,-1,-1,-1,-1,-1,-1,-1,-1,-1,-1,-1,-1,-1,7939,-1,-1,-1,-1,-1,-1,6925,7248,8574,
1954,2009,3679,-1,-1,-1,5251,-1,3156,4555,-1,-1,-1,-1,-1,-1,-1,-1,-1,12030,-1,-1,-1,-1,-1,-1,-1,-1,-1,-1,-1,-1,-1,-1,-1,-1,-1,-1,7550,-1,-1,13581,-1,-1,18206,5442,7170,8685,
2647,1984,4344,7441,-1,-1,2203,-1,4199,-1,-1,-1,-1,-1,-1,-1,-1,-1,-1,5165,-1,-1,-1,-1,-1,-1,-1,-1,-1,-1,-1,-1,-1,-1,-1,-1,-1,-1,-1,-1,-1,-1,-1,-1,-1,-1,-1,-1,
3095,1989,4779,-1,-1,-1,2490,3479,2690,-1,-1,-1,-1,-1,-1,-1,-1,-1,-1,5155,-1,-1,-1,-1,-1,-1,-1,-1,-1,-1,-1,-1,-1,-1,-1,-1,-1,-1,-1,-1,-1,-1,-1,-1,-1,-1,-1,-1,
3342,1999,4989,6071,-1,-1,3004,-1,2769,-1,-1,-1,-1,-1,-1,-1,-1,-1,-1,4765,6368,-1,8709,-1,-1,-1,-1,-1,-1,-1,-1,-1,-1,-1,-1,-1,-1,-1,-1,-1,-1,-1,-1,-1,-1,-1,-1,-1,
2201,1871,3873,5235,-1,-1,2497,6866,3150,-1,-1,-1,-1,-1,-1,-1,-1,-1,-1,4414,5970,8419,8255,-1,-1,-1,-1,-1,-1,-1,-1,-1,-1,-1,-1,-1,-1,-1,6991,-1,-1,-1,-1,-1,-1,7308,-1,7878,
2308,1951,3985,-1,-1,-1,1613,-1,4833,-1,-1,-1,-1,-1,-1,-1,-1,-1,-1,3536,5154,7607,-1,-1,-1,-1,-1,-1,-1,-1,-1,-1,-1,-1,-1,-1,-1,-1,-1,-1,-1,-1,-1,-1,-1,-1,-1,-1,
1599,2761,3261,-1,-1,-1,1866,-1,6443,-1,-1,-1,-1,-1,-1,-1,-1,-1,-1,3850,5487,8603,10169,-1,-1,-1,-1,-1,-1,-1,-1,-1,-1,-1,-1,-1,-1,-1,-1,-1,-1,-1,-1,-1,-1,4740,5062,-1,
1630,2739,3285,4601,-1,-1,1919,-1,7196,-1,-1,-1,-1,-1,-1,-1,-1,-1,-1,3940,5525,8965,7843,-1,-1,-1,-1,-1,-1,-1,-1,-1,-1,-1,-1,-1,-1,-1,-1,-1,-1,-1,-1,-1,-1,-1,-1,-1,
2836,1927,4491,5707,-1,-1,3018,10128,2464,-1,-1,-1,-1,-1,-1,-1,-1,-1,-1,5414,7696,10567,10025,-1,-1,-1,-1,-1,-1,-1,-1,-1,-1,-1,-1,-1,-1,-1,-1,-1,-1,-1,-1,-1,-1,4381,4700,-1,
2510,3805,4213,5589,-1,-1,2824,9182,1856,-1,-1,-1,-1,-1,-1,-1,-1,-1,-1,5752,7937,10545,10591,-1,16785,-1,-1,-1,-1,-1,-1,-1,-1,-1,-1,-1,-1,-1,-1,-1,-1,-1,-1,-1,-1,-1,-1,-1,
1628,2767,3283,-1,-1,-1,1924,-1,5108,11981,-1,-1,-1,-1,-1,-1,-1,-1,-1,3880,5695,8135,8063,-1,-1,-1,-1,-1,-1,-1,-1,-1,-1,-1,-1,-1,-1,-1,-1,-1,-1,-1,-1,-1,-1,-1,-1,-1,
2232,1899,4789,-1,-1,-1,2518,11565,3219,4800,9271,-1,-1,-1,-1,-1,-1,-1,-1,3814,5666,8123,8041,-1,-1,-1,-1,-1,-1,-1,-1,-1,-1,-1,-1,-1,-1,-1,-1,-1,-1,-1,-1,-1,-1,3608,3964,-1,
2100,1901,3869,4821,-1,-1,1670,-1,9356,-1,-1,-1,-1,-1,-1,-1,-1,-1,-1,3314,4866,7311,9879,-1,-1,-1,-1,-1,-1,-1,-1,-1,-1,-1,-1,-1,-1,-1,-1,-1,-1,-1,-1,-1,-1,-1,-1,-1,
2243,1897,4653,5561,-1,-1,2260,9027,3148,-1,-1,-1,-1,-1,-1,-1,-1,-1,-1,3716,5683,8173,8111,-1,-1,-1,-1,-1,-1,-1,-1,-1,-1,-1,-1,-1,-1,-1,-1,-1,-1,-1,-1,-1,-1,-1,-1,-1,
2266,1973,3939,5423,22641,-1,2672,8410,3200,10914,16366,24166,29851,32589,22098,25839,41943,38597,41907,4562,7072,9829,19167,22917,13279,15430,17417,19096,57656,60945,-1,24285,27331,27623,-1,21254,26203,24667,6599,31469,42575,24667,39579,49579,29971,6327,6660,47400,
2891,1953,4825,5821,21087,-1,2993,10373,2492,4086,13323,15008,16349,21914,10448,11703,15557,13051,29133,9206,11023,-1,13321,-1,-1,15376,17483,16466,-1,-1,-1,35193,57837,58941,-1,18575,20801,21151,8068,31165,19105,18605,35907,23689,23153,8328,24786,8844,
2236,1905,3917,5241,-1,-1,2556,-1,3227,-1,-1,-1,-1,-1,-1,-1,-1,-1,-1,4410,6034,-1,8449,-1,-1,-1,-1,-1,-1,-1,-1,-1,-1,-1,-1,-1,-1,-1,7789,-1,-1,-1,-1,-1,-1,8085,-1,8412,
2281,1891,4589,-1,-1,-1,1481,-1,3995,-1,-1,-1,-1,-1,-1,-1,-1,-1,-1,3498,5235,7679,7759,-1,-1,-1,-1,-1,-1,-1,-1,-1,-1,-1,-1,-1,-1,-1,-1,-1,-1,-1,-1,-1,-1,6218,6548,-1,
2242,1935,3933,11767,-1,-1,2563,18205,3320,5290,15868,27595,33584,42103,38329,41931,43675,40623,47415,4630,6320,8791,52731,33745,21065,35971,-1,37132,-1,-1,-1,51833,-1,-1,-1,40401,42425,43129,17048,37479,43195,22037,50881,47861,30317,6544,6992,-1,
1671,2853,3343,16627,47241,-1,2042,8918,4408,5031,22894,27112,34194,35695,12153,15229,18571,15827,22463,18400,39801,51451,-1,-1,-1,30247,32577,34828,-1,-1,-1,-1,-1,-1,-1,37755,39825,40487,7797,-1,14503,18767,-1,24593,33295,6272,6602,8436,
2251,1949,3931,5277,-1,-1,2562,-1,3164,-1,-1,-1,-1,-1,-1,-1,-1,-1,-1,4552,6128,8925,8671,-1,-1,-1,-1,-1,-1,-1,-1,-1,-1,-1,-1,-1,-1,-1,-1,-1,-1,-1,-1,-1,-1,8523,8840,-1,
2200,1955,3903,5237,-1,-1,2526,-1,3269,-1,-1,-1,-1,-1,-1,-1,-1,-1,-1,4408,6029,-1,8347,-1,-1,-1,-1,-1,-1,-1,-1,-1,-1,-1,-1,-1,-1,-1,-1,-1,-1,-1,-1,-1,-1,-1,-1,-1,
1620,2731,3279,7779,-1,-1,1877,-1,5333,-1,-1,-1,-1,-1,-1,-1,-1,-1,-1,3196,4746,7195,10825,-1,-1,-1,-1,-1,-1,-1,-1,-1,-1,-1,-1,-1,-1,-1,-1,-1,-1,-1,-1,-1,-1,-1,-1,-1,
2202,1925,3865,6301,-1,-1,2635,9214,3195,-1,-1,-1,-1,-1,-1,-1,-1,-1,-1,3976,5957,10201,9251,-1,-1,-1,-1,-1,-1,-1,-1,-1,-1,-1,-1,-1,-1,-1,6472,-1,-1,-1,-1,-1,-1,6796,8678,7816,
2525,2044,4199,5591,-1,-1,2336,-1,3520,-1,-1,-1,-1,-1,-1,-1,-1,-1,-1,4740,-1,-1,-1,-1,-1,-1,-1,-1,-1,-1,-1,-1,-1,-1,-1,-1,-1,-1,8068,-1,-1,-1,-1,-1,-1,6210,6545,8680,
1962,2039,3639,12941,-1,-1,2831,-1,3499,13453,-1,-1,-1,-1,-1,-1,-1,-1,-1,4345,6181,-1,8809,16461,-1,-1,-1,-1,-1,-1,-1,-1,-1,-1,-1,-1,-1,-1,-1,-1,-1,-1,-1,-1,-1,-1,-1,-1,
2678,1985,4837,6703,-1,-1,1542,18687,4337,17372,27902,45283,60199,60858,-1,-1,-1,-1,-1,3910,6057,8513,52999,28047,23569,-1,-1,-1,-1,-1,-1,-1,-1,-1,-1,-1,-1,-1,27358,-1,-1,-1,-1,-1,-1,4702,5016,28238,
2416,1989,4089,5303,-1,-1,2539,15884,3170,4918,21887,25323,27211,27869,-1,-1,-1,-1,-1,15112,17036,19781,19725,43235,22915,-1,-1,-1,-1,-1,-1,-1,-1,-1,-1,-1,-1,-1,7591,-1,-1,-1,-1,-1,-1,9246,14054,9646,
1593,2677,3247,4673,-1,-1,1890,13284,10900,-1,-1,-1,-1,-1,-1,-1,-1,-1,-1,3910,5912,8427,9893,-1,-1,-1,-1,-1,-1,-1,-1,-1,-1,-1,-1,-1,-1,-1,-1,-1,-1,-1,-1,-1,-1,6497,6864,-1,
2192,1883,3851,5221,-1,-1,2436,11862,3075,-1,-1,-1,-1,-1,-1,-1,-1,-1,-1,4408,11263,13709,14565,-1,-1,-1,-1,-1,-1,-1,-1,-1,-1,-1,-1,-1,-1,-1,7767,-1,-1,-1,-1,-1,-1,8152,-1,8482,
1651,2765,3315,4671,-1,-1,1914,-1,4799,-1,-1,-1,-1,-1,-1,-1,-1,-1,-1,-1,-1,-1,-1,-1,-1,-1,-1,-1,-1,-1,-1,-1,-1,-1,-1,-1,-1,-1,6844,-1,-1,-1,-1,-1,-1,6611,-1,7462,
2084,1957,3751,5693,-1,-1,2407,-1,-1,-1,-1,-1,-1,-1,-1,-1,-1,-1,-1,3648,5245,7735,-1,-1,-1,-1,-1,-1,-1,-1,-1,-1,-1,-1,-1,-1,-1,-1,-1,-1,-1,-1,-1,-1,-1,5371,5824,-1,
2229,1933,4495,5231,-1,-1,2517,7988,3233,-1,-1,-1,-1,-1,-1,-1,-1,-1,-1,4266,5909,8453,9433,-1,-1,-1,-1,-1,-1,-1,-1,-1,-1,-1,-1,-1,-1,-1,-1,-1,-1,-1,-1,-1,-1,-1,-1,-1,
2218,1961,4199,5703,-1,-1,2527,6968,3136,-1,-1,-1,-1,-1,-1,-1,-1,-1,-1,3824,5588,8067,8959,-1,-1,-1,-1,-1,-1,-1,-1,-1,-1,-1,-1,-1,-1,-1,-1,-1,-1,-1,-1,-1,-1,-1,-1,-1,
2890,1933,4543,6411,-1,-1,3069,10050,2463,-1,-1,-1,-1,-1,-1,-1,-1,-1,-1,4270,6128,9439,8471,-1,-1,-1,-1,-1,-1,-1,-1,-1,-1,-1,-1,-1,-1,-1,-1,-1,-1,-1,-1,-1,-1,4380,4694,-1,
2182,1967,3837,5119,-1,-1,2356,7919,3883,-1,-1,-1,-1,-1,-1,-1,-1,-1,-1,4614,6482,9323,9281,-1,-1,-1,-1,-1,-1,-1,-1,-1,-1,-1,-1,-1,-1,-1,-1,-1,-1,-1,-1,-1,-1,8049,8370,-1,
1655,2775,3325,4687,-1,-1,1887,-1,-1,-1,-1,-1,-1,-1,-1,-1,-1,-1,-1,4106,6774,9223,9593,-1,-1,-1,-1,-1,-1,-1,-1,-1,-1,-1,-1,-1,-1,-1,-1,-1,-1,-1,-1,-1,-1,5795,6112,-1,
2950,1959,4645,6775,-1,-1,3046,-1,2507,8274,-1,-1,-1,-1,-1,-1,-1,-1,-1,4260,6725,9183,-1,-1,-1,-1,-1,-1,-1,-1,-1,-1,-1,-1,-1,-1,-1,-1,-1,-1,-1,-1,-1,-1,-1,3851,4214,-1,
2226,1963,3899,5507,-1,-1,2697,9318,3411,-1,-1,-1,-1,-1,-1,-1,-1,-1,-1,4708,6264,8919,9539,-1,-1,-1,-1,-1,-1,-1,-1,-1,-1,-1,-1,-1,-1,-1,-1,-1,-1,-1,-1,-1,-1,-1,-1,-1,
2127,1967,3785,5085,-1,-1,2413,-1,3994,-1,-1,-1,-1,-1,-1,-1,-1,-1,-1,4828,6386,9371,9481,-1,-1,-1,-1,-1,-1,-1,-1,-1,-1,-1,-1,-1,-1,-1,13734,-1,-1,-1,-1,-1,-1,-1,-1,-1,
2382,1913,4429,-1,-1,-1,1558,10366,3942,8883,15165,-1,-1,-1,-1,-1,-1,-1,-1,3596,5186,7617,7633,22709,14087,21347,-1,-1,-1,-1,-1,-1,-1,-1,-1,-1,-1,-1,16805,-1,-1,-1,-1,-1,-1,17618,17958,18100,
2204,1913,3879,-1,-1,-1,2509,8927,3148,13188,-1,-1,-1,-1,-1,-1,-1,-1,-1,4552,6148,8777,8567,-1,18497,16101,-1,17042,18860,-1,-1,-1,-1,-1,-1,-1,-1,-1,7092,-1,-1,-1,-1,-1,-1,6690,7764,7726,
2291,1971,3947,5377,-1,-1,2580,-1,3257,-1,-1,-1,-1,-1,-1,-1,-1,-1,-1,4890,7088,-1,-1,-1,-1,-1,-1,-1,-1,-1,-1,-1,-1,-1,-1,-1,-1,-1,-1,-1,-1,-1,-1,-1,-1,6271,6592,-1,
1663,2847,3339,7515,-1,-1,1968,3943,3657,-1,-1,-1,-1,-1,-1,-1,-1,-1,-1,7722,-1,-1,-1,-1,-1,-1,-1,-1,-1,-1,-1,-1,-1,-1,-1,-1,-1,-1,-1,-1,-1,-1,-1,-1,-1,-1,-1,-1,
2862,1935,4543,6445,-1,-1,3119,5261,2440,26089,32343,33428,34649,37951,-1,-1,-1,-1,-1,4322,6014,8487,8355,-1,31325,-1,-1,-1,-1,-1,-1,-1,-1,-1,-1,-1,-1,-1,11665,-1,-1,-1,-1,-1,-1,8257,18274,12310,
2159,1997,5409,7013,-1,-1,2450,38910,3948,31238,-1,-1,-1,-1,-1,-1,-1,-1,-1,4468,6132,9535,9029,-1,-1,-1,-1,-1,-1,-1,-1,-1,-1,-1,-1,-1,-1,-1,14097,-1,-1,-1,-1,-1,-1,3287,3614,14952,
2933,1903,4597,6401,-1,-1,3023,7801,2461,12004,-1,-1,-1,-1,-1,-1,-1,-1,-1,4298,6132,8691,8433,-1,14161,-1,-1,-1,-1,-1,-1,-1,-1,-1,-1,-1,-1,-1,-1,-1,-1,-1,-1,-1,-1,7545,-1,-1,
2355,1977,4021,5391,-1,-1,2459,7848,3212,-1,-1,-1,-1,-1,-1,-1,-1,-1,-1,4822,6447,8905,8773,-1,14929,-1,-1,-1,-1,-1,-1,-1,-1,-1,-1,-1,-1,-1,16317,-1,-1,-1,-1,-1,-1,5190,5940,-1,
2473,2019,4269,-1,-1,-1,2739,-1,10199,-1,-1,-1,-1,-1,-1,-1,-1,-1,-1,5095,-1,-1,-1,-1,-1,-1,-1,-1,-1,-1,-1,-1,-1,-1,-1,-1,-1,-1,-1,-1,-1,-1,-1,-1,-1,3452,3775,-1,
2194,1979,3919,14536,-1,-1,2458,-1,7475,-1,-1,-1,-1,-1,-1,-1,-1,-1,-1,3785,5908,-1,-1,-1,-1,-1,-1,-1,-1,-1,-1,-1,-1,-1,-1,-1,-1,-1,-1,-1,-1,-1,-1,-1,-1,-1,-1,-1,
1656,2825,3317,-1,-1,-1,2033,2974,3577,10151,11844,12849,-1,-1,-1,-1,-1,-1,-1,4632,6381,8931,10709,-1,-1,-1,-1,-1,-1,-1,-1,-1,-1,-1,-1,-1,-1,-1,6644,-1,-1,-1,-1,-1,-1,6898,-1,7260,
1590,2673,3243,-1,-1,-1,1903,12005,5829,10300,-1,-1,-1,-1,-1,-1,-1,-1,-1,3186,4764,7209,11623,-1,-1,-1,-1,-1,-1,-1,-1,-1,-1,-1,-1,-1,-1,-1,-1,-1,-1,-1,-1,-1,-1,-1,-1,-1,
1698,2875,3363,4971,-1,-1,2208,-1,-1,-1,-1,-1,-1,-1,-1,-1,-1,-1,-1,4940,6870,-1,-1,-1,-1,-1,-1,-1,-1,-1,-1,-1,-1,-1,-1,-1,-1,-1,-1,-1,-1,-1,-1,-1,-1,-1,-1,-1,
2219,1839,3901,-1,-1,-1,2496,-1,4033,-1,-1,-1,-1,-1,-1,-1,-1,-1,-1,6584,-1,-1,-1,-1,-1,-1,-1,-1,-1,-1,-1,-1,-1,-1,-1,-1,-1,-1,-1,-1,-1,-1,-1,-1,-1,-1,-1,-1,
2355,2347,4729,5575,-1,-1,1375,-1,6033,-1,-1,-1,-1,-1,-1,-1,-1,-1,-1,3826,5376,9235,-1,-1,-1,-1,-1,-1,-1,-1,-1,-1,-1,-1,-1,-1,-1,-1,-1,-1,-1,-1,-1,-1,-1,6872,8066,-1,
2449,2003,4137,6345,-1,-1,2945,-1,3275,-1,-1,-1,-1,-1,-1,-1,-1,-1,-1,4342,6088,-1,-1,-1,-1,-1,-1,-1,-1,-1,-1,-1,-1,-1,-1,-1,-1,-1,6887,11849,-1,-1,-1,-1,-1,8482,-1,8956,
2539,2054,4199,6571,-1,-1,3266,-1,3878,13044,28708,-1,-1,-1,-1,-1,-1,-1,-1,4860,6604,9064,-1,17531,-1,-1,-1,-1,-1,-1,-1,-1,-1,-1,-1,-1,-1,-1,24868,33596,-1,31356,-1,-1,-1,19180,19585,-1,
1595,2909,3374,4731,-1,-1,2063,16049,4189,5985,32810,-1,-1,-1,10949,12139,15366,18041,-1,-1,-1,-1,-1,-1,-1,-1,-1,-1,-1,-1,-1,-1,-1,-1,-1,-1,-1,-1,8445,-1,17331,23371,-1,-1,-1,7494,7850,9085,
2425,2013,4089,-1,-1,-1,1767,28440,4402,26671,31256,-1,-1,-1,-1,-1,-1,-1,-1,3640,5293,7859,9561,-1,-1,-1,-1,-1,-1,-1,-1,-1,-1,-1,-1,-1,-1,-1,26993,-1,-1,-1,-1,-1,-1,6525,6864,27726,
2835,1881,4509,6233,-1,-1,2913,12657,2356,9349,35133,-1,-1,-1,-1,-1,-1,-1,-1,4224,5904,9131,8373,35529,-1,-1,-1,-1,-1,-1,-1,-1,-1,-1,-1,-1,-1,-1,-1,-1,-1,-1,-1,-1,-1,-1,-1,-1,
2944,2029,4619,7266,-1,-1,3094,-1,2571,-1,-1,-1,-1,-1,-1,-1,-1,-1,-1,4380,-1,-1,-1,-1,-1,-1,-1,-1,-1,-1,-1,-1,-1,-1,-1,-1,-1,-1,-1,-1,-1,-1,-1,-1,-1,-1,-1,-1,
1914,2014,3579,5251,-1,-1,2483,-1,4170,-1,-1,-1,-1,-1,-1,-1,-1,-1,-1,4875,6526,9694,8859,-1,-1,-1,-1,-1,-1,-1,-1,-1,-1,-1,-1,-1,-1,-1,-1,-1,-1,-1,-1,-1,-1,-1,-1,-1,
1659,3004,3479,4806,-1,-1,2022,-1,5156,-1,-1,-1,-1,-1,-1,-1,-1,-1,-1,5980,-1,-1,-1,-1,-1,-1,-1,-1,-1,-1,-1,-1,-1,-1,-1,-1,-1,-1,-1,-1,-1,-1,-1,-1,-1,4524,4850,-1,
1672,2839,3344,9281,-1,-1,1989,-1,4455,-1,-1,-1,-1,-1,-1,-1,-1,-1,-1,-1,-1,-1,-1,-1,-1,-1,-1,-1,-1,-1,-1,-1,-1,-1,-1,-1,-1,-1,-1,-1,-1,-1,-1,-1,-1,4550,4890,-1,
2552,2019,4219,-1,-1,-1,3098,-1,-1,-1,-1,-1,-1,-1,-1,-1,-1,-1,-1,-1,-1,-1,-1,-1,-1,-1,-1,-1,-1,-1,-1,-1,-1,-1,-1,-1,-1,-1,-1,-1,-1,-1,-1,-1,-1,8089,-1,-1,
1669,2874,3339,-1,-1,-1,2068,-1,3763,-1,-1,-1,-1,-1,-1,-1,-1,-1,-1,-1,-1,-1,-1,-1,-1,-1,-1,-1,-1,-1,-1,-1,-1,-1,-1,-1,-1,-1,-1,-1,-1,-1,-1,-1,-1,3955,-1,-1,
1692,2825,3357,6173,-1,-1,2001,-1,7384,12774,16725,-1,-1,-1,-1,-1,-1,-1,-1,3356,4931,7377,-1,-1,-1,-1,-1,-1,-1,-1,-1,-1,-1,-1,-1,-1,-1,-1,-1,-1,-1,-1,-1,-1,-1,-1,-1,-1,
1618,2633,3279,-1,-1,-1,2187,-1,5949,9762,-1,-1,-1,-1,-1,-1,-1,-1,-1,3406,4952,7393,8259,-1,-1,-1,-1,-1,-1,-1,-1,-1,-1,-1,-1,-1,-1,-1,10491,-1,-1,-1,-1,-1,-1,6842,-1,11142,
2252,1927,3905,-1,-1,-1,2413,-1,5346,-1,-1,-1,-1,-1,-1,-1,-1,-1,-1,3642,5225,7673,-1,-1,-1,-1,-1,-1,-1,-1,-1,-1,-1,-1,-1,-1,-1,-1,-1,-1,-1,-1,-1,-1,-1,-1,-1,-1,
2642,3787,4299,8257,-1,-1,3045,10386,2037,9426,-1,-1,-1,-1,-1,-1,-1,-1,-1,4412,6110,-1,8451,-1,-1,-1,-1,-1,-1,-1,-1,-1,-1,-1,-1,-1,-1,-1,-1,-1,-1,-1,-1,-1,-1,5706,-1,-1,
2984,1997,4651,18009,-1,-1,3105,6377,2551,7270,14489,-1,-1,-1,-1,-1,-1,-1,-1,4368,6034,8561,9005,22055,14261,-1,-1,-1,-1,-1,-1,-1,-1,-1,-1,-1,-1,-1,12804,-1,-1,-1,-1,-1,-1,5311,5658,13448,
2987,1969,4657,6511,-1,-1,3102,6511,2561,8301,15861,-1,-1,-1,-1,-1,-1,-1,-1,4292,5945,8567,9049,-1,19361,-1,-1,-1,-1,-1,-1,-1,-1,-1,-1,-1,-1,-1,-1,-1,-1,-1,-1,-1,-1,22782,23280,-1,
2983,1923,4641,6435,-1,-1,3099,13163,2523,11779,-1,-1,-1,-1,-1,-1,-1,-1,-1,4564,6118,9911,8919,-1,23487,-1,-1,-1,-1,-1,-1,-1,-1,-1,-1,-1,-1,-1,-1,-1,-1,-1,-1,-1,-1,3968,4300,-1,
1621,2747,3277,30621,-1,-1,1935,12892,6615,11654,11991,-1,-1,-1,-1,-1,-1,-1,-1,3842,5407,8185,7709,-1,19639,-1,-1,-1,-1,-1,-1,-1,-1,-1,-1,-1,-1,-1,12824,-1,-1,-1,-1,-1,-1,5127,7226,17932,
3015,1919,4741,6231,-1,-1,2920,8133,2765,-1,-1,-1,-1,-1,-1,-1,-1,-1,-1,4230,5814,8367,8483,-1,-1,-1,-1,-1,-1,-1,-1,-1,-1,-1,-1,-1,-1,-1,-1,-1,-1,-1,-1,-1,-1,8196,8710,-1,
2892,1917,5333,6593,-1,-1,3231,9178,2469,7129,-1,-1,-1,-1,-1,-1,-1,-1,-1,4524,6076,11531,8359,-1,-1,-1,-1,-1,-1,-1,-1,-1,-1,-1,-1,-1,-1,-1,-1,-1,-1,-1,-1,-1,-1,-1,-1,-1,
2868,1945,4531,6341,-1,-1,2972,8176,2389,6768,-1,-1,-1,-1,-1,-1,-1,-1,-1,4140,5696,-1,8031,-1,-1,-1,-1,-1,-1,-1,-1,-1,-1,-1,-1,-1,-1,-1,-1,-1,-1,-1,-1,-1,-1,-1,-1,-1,
3043,1957,4699,6847,-1,-1,3086,7500,2554,-1,-1,-1,-1,-1,-1,-1,-1,-1,-1,4726,6319,8761,-1,-1,-1,-1,-1,-1,-1,-1,-1,-1,-1,-1,-1,-1,-1,-1,-1,-1,-1,-1,-1,-1,-1,5784,-1,-1,
3038,1973,4719,-1,-1,-1,3224,-1,2574,5099,-1,-1,-1,-1,-1,-1,-1,-1,-1,4820,-1,-1,-1,-1,-1,-1,-1,-1,-1,-1,-1,-1,-1,-1,-1,-1,-1,-1,-1,-1,-1,-1,-1,-1,-1,7097,-1,-1,
1669,2639,3351,-1,-1,-1,2243,-1,-1,-1,-1,-1,-1,-1,-1,-1,-1,-1,-1,3462,-1,-1,-1,-1,-1,-1,-1,-1,-1,-1,-1,-1,-1,-1,-1,-1,-1,-1,-1,-1,-1,-1,-1,-1,-1,-1,-1,-1,
3037,1923,4697,-1,-1,-1,3140,7004,2518,-1,-1,-1,-1,-1,-1,-1,-1,-1,-1,4422,6217,8663,11581,-1,13883,-1,-1,-1,-1,-1,-1,-1,-1,-1,-1,-1,-1,-1,-1,-1,-1,-1,-1,-1,-1,4365,4770,-1,
2397,1963,4073,5491,-1,-1,2432,7441,3456,-1,-1,-1,-1,-1,-1,-1,-1,-1,-1,4560,6165,8641,10441,-1,-1,-1,-1,-1,-1,-1,-1,-1,-1,-1,-1,-1,-1,-1,-1,-1,-1,-1,-1,-1,-1,-1,-1,-1,
3292,2014,5334,-1,-1,-1,3428,7214,2824,-1,-1,-1,-1,-1,-1,-1,-1,-1,-1,-1,-1,-1,-1,-1,-1,-1,-1,-1,-1,-1,-1,-1,-1,-1,-1,-1,-1,-1,-1,-1,-1,-1,-1,-1,-1,9921,-1,-1,
3621,2009,6139,7336,-1,-1,3143,7728,2775,5242,-1,-1,-1,-1,-1,-1,-1,-1,-1,5380,6964,-1,-1,16911,12806,-1,-1,-1,-1,-1,-1,-1,-1,-1,-1,-1,-1,-1,-1,-1,-1,-1,-1,-1,-1,19766,-1,-1,
3031,1974,4709,6811,-1,-1,3535,-1,3200,-1,-1,-1,-1,-1,-1,-1,-1,-1,-1,4800,6435,-1,-1,-1,23206,-1,-1,-1,-1,-1,-1,-1,-1,-1,-1,-1,-1,-1,-1,-1,-1,-1,-1,-1,-1,17307,17660,-1,
3094,1959,4779,7541,-1,-1,3677,7108,2663,7915,-1,-1,-1,-1,-1,-1,-1,-1,-1,-1,-1,-1,-1,-1,-1,-1,-1,-1,-1,-1,-1,-1,-1,-1,-1,-1,-1,-1,-1,-1,-1,-1,-1,-1,-1,-1,-1,-1,
1660,2814,3324,7421,-1,-1,2072,3581,3324,21333,37419,-1,-1,-1,11561,-1,27676,26116,-1,4945,6514,8959,-1,13601,-1,-1,-1,-1,-1,-1,-1,-1,-1,-1,-1,-1,-1,-1,23246,-1,27866,32741,-1,33206,-1,6840,7185,25190,
2994,1974,4669,32156,-1,-1,7918,11752,2544,6967,7665,13171,28841,-1,11283,21359,-1,15056,-1,12525,-1,-1,-1,-1,-1,-1,-1,-1,-1,-1,-1,-1,-1,-1,-1,-1,-1,-1,8152,34571,16251,13786,-1,20801,18576,4159,4520,8790,
2343,2029,4009,7301,-1,-1,3257,-1,3138,5785,-1,-1,-1,-1,-1,-1,-1,-1,-1,4605,-1,-1,-1,-1,-1,-1,-1,-1,-1,-1,-1,-1,-1,-1,-1,-1,-1,-1,-1,-1,-1,-1,-1,-1,-1,13014,-1,-1,
1630,2734,3299,4736,-1,-1,1921,-1,-1,-1,-1,-1,-1,-1,-1,-1,-1,-1,-1,4140,5831,-1,-1,-1,-1,-1,-1,-1,-1,-1,-1,-1,-1,-1,-1,-1,-1,-1,-1,-1,-1,-1,-1,-1,-1,6300,7415,-1,
3065,1989,4759,-1,-1,-1,4061,4090,2580,9422,14515,-1,-1,-1,-1,-1,-1,-1,-1,5730,7294,11294,9614,18936,13121,-1,-1,-1,-1,-1,-1,-1,-1,-1,-1,-1,-1,-1,-1,-1,-1,-1,-1,-1,-1,4876,5215,-1,
3029,1924,4699,6871,-1,-1,3513,3602,2535,6019,9334,12155,-1,-1,-1,-1,-1,-1,-1,4875,6466,10474,8774,13961,-1,-1,-1,-1,-1,-1,-1,-1,-1,-1,-1,-1,-1,-1,11785,-1,-1,-1,-1,-1,-1,12559,17120,13265,
1722,2819,3375,4697,-1,-1,1974,-1,4684,11882,-1,-1,-1,-1,-1,-1,-1,-1,-1,5822,-1,-1,-1,-1,-1,-1,-1,-1,-1,-1,-1,-1,-1,-1,-1,-1,-1,-1,-1,-1,-1,-1,-1,-1,-1,-1,-1,-1,
1633,2865,3377,4871,-1,-1,1959,-1,4290,12228,-1,-1,-1,-1,-1,-1,-1,-1,-1,5698,-1,-1,-1,-1,-1,-1,-1,-1,-1,-1,-1,-1,-1,-1,-1,-1,-1,-1,-1,-1,-1,-1,-1,-1,-1,21414,-1,-1,
1905,1985,3599,9997,16255,-1,7104,8232,3086,4536,12658,-1,-1,-1,19991,-1,24665,22323,-1,9994,-1,-1,-1,-1,-1,11924,-1,12880,-1,-1,-1,-1,-1,-1,-1,16199,-1,-1,8138,13793,24225,-1,18703,-1,-1,5626,5954,9530,
3004,1919,4657,8925,-1,-1,3513,11343,2587,6543,9730,-1,-1,-1,-1,-1,-1,-1,-1,5488,7046,12597,9373,-1,15833,-1,-1,-1,-1,-1,-1,-1,-1,-1,-1,-1,-1,-1,16423,22223,-1,-1,-1,-1,-1,4625,6806,19030,
2263,2004,3944,6416,62091,51741,3228,9211,3036,10409,15577,20293,21067,54441,-1,-1,-1,-1,-1,4590,6820,9569,-1,12711,21346,27337,-1,28570,30560,-1,-1,-1,-1,-1,-1,-1,-1,-1,12393,-1,-1,-1,-1,-1,-1,5304,5785,13155,
1850,1959,3529,12951,33276,-1,7709,7732,3005,4434,15928,16687,17706,19932,-1,-1,-1,-1,-1,9120,10690,13154,-1,20661,16566,25261,-1,27560,31290,-1,-1,-1,-1,-1,-1,29687,-1,32166,7922,-1,54511,55791,-1,59411,60431,5460,5800,8690,
2119,1937,3787,6597,-1,-1,3163,-1,3053,-1,-1,-1,-1,-1,-1,-1,-1,-1,-1,4362,6623,-1,-1,-1,-1,-1,-1,-1,-1,-1,-1,-1,-1,-1,-1,-1,-1,-1,-1,-1,-1,-1,-1,-1,-1,-1,-1,-1,
1595,2713,3259,4619,-1,-1,1879,-1,-1,-1,-1,-1,-1,-1,-1,-1,-1,-1,-1,4048,5683,9285,-1,-1,-1,-1,-1,-1,-1,-1,-1,-1,-1,-1,-1,-1,-1,-1,-1,-1,-1,-1,-1,-1,-1,-1,-1,-1,
2464,1994,4149,5296,-1,-1,2524,-1,4114,-1,-1,-1,-1,-1,-1,-1,-1,-1,-1,5035,7108,-1,-1,-1,-1,-1,-1,-1,-1,-1,-1,-1,-1,-1,-1,-1,-1,-1,-1,-1,-1,-1,-1,-1,-1,-1,-1,-1,
1630,2644,3319,7141,-1,-1,2337,3901,3640,-1,-1,-1,-1,-1,-1,-1,-1,-1,-1,5105,8882,-1,-1,-1,-1,-1,-1,-1,-1,-1,-1,-1,-1,-1,-1,-1,-1,-1,-1,-1,-1,-1,-1,-1,-1,-1,-1,-1,
2209,1947,3889,5561,15111,-1,2380,8368,3211,9836,15801,23038,23372,-1,-1,-1,-1,-1,-1,4976,6842,9311,-1,-1,-1,10764,-1,11726,-1,-1,-1,14749,18269,19233,-1,13600,15317,16017,11289,15917,-1,20399,-1,-1,-1,7283,7668,-1,
1878,1907,3559,13013,-1,-1,5243,11893,3097,4160,7214,12382,19492,-1,10636,12621,12907,14495,17275,7166,22744,-1,-1,-1,-1,-1,-1,-1,-1,-1,-1,-1,-1,-1,-1,-1,-1,-1,8142,-1,12843,17615,-1,18791,23321,5530,5846,9030,
1757,2869,3424,4816,-1,-1,1977,-1,-1,-1,-1,-1,-1,-1,-1,-1,-1,-1,-1,4095,5880,8329,8644,-1,-1,-1,-1,-1,-1,-1,-1,-1,-1,-1,-1,-1,-1,-1,-1,-1,-1,-1,-1,-1,-1,-1,-1,-1,
2670,1944,4334,6311,-1,-1,1733,-1,3620,10540,-1,-1,-1,-1,-1,-1,-1,-1,-1,4160,6777,9254,9099,-1,-1,-1,-1,-1,-1,-1,-1,-1,-1,-1,-1,-1,-1,-1,-1,-1,-1,-1,-1,-1,-1,-1,-1,-1,
1968,2019,3634,6806,-1,-1,3058,-1,3811,15036,-1,-1,-1,-1,-1,-1,-1,-1,-1,4640,6290,8764,8589,-1,-1,-1,-1,-1,-1,-1,-1,-1,-1,-1,-1,-1,-1,-1,-1,-1,-1,-1,-1,-1,-1,-1,-1,-1,
2310,2004,3979,-1,-1,-1,2589,8087,3295,-1,-1,-1,-1,-1,-1,-1,-1,-1,-1,4765,6381,14044,8689,-1,-1,-1,-1,-1,-1,-1,-1,-1,-1,-1,-1,-1,-1,-1,-1,-1,-1,-1,-1,-1,-1,5790,6150,-1,
2375,2019,4044,-1,-1,-1,2648,-1,3405,-1,-1,-1,-1,-1,-1,-1,-1,-1,-1,4270,-1,-1,-1,-1,-1,-1,-1,-1,-1,-1,-1,-1,-1,-1,-1,-1,-1,-1,-1,-1,-1,-1,-1,-1,-1,5561,5900,-1,
3073,2039,4739,6061,-1,-1,3308,-1,2569,-1,-1,-1,-1,-1,-1,-1,-1,-1,-1,4975,-1,-1,-1,-1,-1,-1,-1,-1,-1,-1,-1,-1,-1,-1,-1,-1,-1,-1,-1,-1,-1,-1,-1,-1,-1,-1,-1,-1,
2949,2024,4659,6931,-1,-1,3239,7312,2577,-1,-1,-1,-1,-1,-1,-1,-1,-1,-1,4470,6224,8734,8549,-1,13616,-1,-1,-1,-1,-1,-1,-1,-1,-1,-1,-1,-1,-1,-1,-1,-1,-1,-1,-1,-1,4635,4965,-1,
2286,1989,3959,5326,-1,-1,2593,6937,3155,-1,-1,-1,-1,-1,-1,-1,-1,-1,-1,4515,6114,10434,8589,-1,-1,-1,-1,-1,-1,-1,-1,-1,-1,-1,-1,-1,-1,-1,-1,-1,-1,-1,-1,-1,-1,7521,7855,-1,
2819,2209,4529,-1,-1,-1,1794,-1,4998,-1,-1,-1,-1,-1,-1,-1,-1,-1,-1,4045,5619,8074,-1,-1,11441,-1,-1,-1,-1,-1,-1,-1,-1,-1,-1,-1,-1,-1,-1,-1,-1,-1,-1,-1,-1,-1,-1,-1,
2406,1969,4079,-1,-1,-1,1523,-1,4735,-1,-1,-1,-1,-1,-1,-1,-1,-1,-1,3630,5245,7704,-1,-1,-1,-1,-1,-1,-1,-1,-1,-1,-1,-1,-1,-1,-1,-1,-1,-1,-1,-1,-1,-1,-1,-1,-1,-1,
2965,1984,4634,6411,-1,-1,3103,-1,2554,-1,-1,-1,-1,-1,-1,-1,-1,-1,-1,4315,5890,8364,11579,-1,-1,-1,-1,-1,-1,-1,-1,-1,-1,-1,-1,-1,-1,-1,-1,-1,-1,-1,-1,-1,-1,6469,6790,-1,
3504,1959,5174,6321,-1,-1,2737,-1,2581,-1,-1,-1,-1,-1,-1,-1,-1,-1,-1,5375,7110,9794,9479,-1,-1,-1,-1,-1,-1,-1,-1,-1,-1,-1,-1,-1,-1,-1,3126,8016,-1,-1,-1,-1,-1,9012,-1,9455,
3401,2049,5084,6221,-1,-1,3141,-1,2722,-1,-1,-1,-1,-1,-1,-1,-1,-1,-1,5005,-1,-1,-1,-1,-1,-1,-1,-1,-1,-1,-1,-1,-1,-1,-1,-1,-1,-1,-1,-1,-1,-1,-1,-1,-1,5745,6690,-1,
4044,2104,5699,7236,-1,-1,1714,3088,2739,-1,-1,-1,-1,-1,-1,-1,-1,-1,-1,5290,-1,-1,-1,-1,-1,-1,-1,-1,-1,-1,-1,-1,-1,-1,-1,-1,-1,-1,3526,8301,-1,-1,-1,-1,-1,-1,-1,-1,
2868,2069,4969,6266,-1,-1,1845,-1,6554,12569,-1,-1,-1,-1,-1,-1,-1,-1,-1,4090,5781,8274,8879,-1,-1,-1,-1,-1,-1,-1,-1,-1,-1,-1,-1,-1,-1,-1,-1,-1,-1,-1,-1,-1,-1,3875,4350,-1,
2105,1919,3769,7681,-1,-1,2269,11340,4522,9047,-1,-1,-1,-1,-1,-1,-1,-1,-1,3500,5404,7924,-1,-1,-1,-1,-1,-1,-1,-1,-1,-1,-1,-1,-1,-1,-1,-1,-1,-1,-1,-1,-1,-1,-1,-1,-1,-1,
2964,1994,4629,7036,-1,-1,3419,7763,2583,9781,-1,-1,-1,-1,-1,-1,-1,-1,-1,4615,6289,10554,8599,17071,-1,-1,-1,-1,-1,-1,-1,-1,-1,-1,-1,-1,-1,-1,-1,-1,-1,-1,-1,-1,-1,4784,5160,-1,
2498,1979,4179,6201,-1,-1,2377,11615,3505,10201,-1,-1,-1,-1,-1,-1,-1,-1,-1,4245,5879,8349,8244,-1,-1,-1,-1,-1,-1,-1,-1,-1,-1,-1,-1,-1,-1,-1,-1,-1,-1,-1,-1,-1,-1,-1,-1,-1,
2226,1899,3929,6135,-1,-1,2833,-1,3131,-1,-1,-1,-1,-1,-1,-1,-1,-1,-1,4118,6388,-1,-1,-1,-1,-1,-1,-1,-1,-1,-1,-1,-1,-1,-1,-1,-1,-1,-1,-1,-1,-1,-1,-1,-1,6014,-1,-1,
2833,1895,4495,5647,-1,-1,2988,-1,2395,-1,-1,-1,-1,-1,-1,-1,-1,-1,-1,4656,6546,-1,10327,-1,-1,-1,-1,-1,-1,-1,-1,-1,-1,-1,-1,-1,-1,-1,-1,-1,-1,-1,-1,-1,-1,8880,9326,-1,
1639,2723,3307,4653,-1,-1,1908,-1,-1,-1,-1,-1,-1,-1,-1,-1,-1,-1,-1,3834,5458,7915,8289,-1,-1,-1,-1,-1,-1,-1,-1,-1,-1,-1,-1,-1,-1,-1,-1,-1,-1,-1,-1,-1,-1,-1,-1,-1,
1811,1895,3479,5377,-1,-1,2122,-1,-1,-1,-1,-1,-1,-1,-1,-1,-1,-1,-1,3382,4947,7855,8157,-1,-1,-1,-1,-1,-1,-1,-1,-1,-1,-1,-1,-1,-1,-1,-1,-1,-1,-1,-1,-1,-1,-1,-1,-1,
3384,1994,5149,6406,-1,-1,2731,-1,2574,4633,-1,-1,-1,-1,-1,-1,-1,-1,-1,16340,-1,-1,-1,-1,-1,19340,-1,20735,-1,-1,-1,-1,-1,-1,-1,-1,-1,-1,7199,-1,14136,18221,-1,23536,26891,11649,-1,12005,
3060,2039,4734,13386,-1,-1,3192,-1,2663,25451,-1,-1,-1,-1,-1,-1,-1,-1,-1,4425,6008,-1,-1,24361,14731,-1,-1,-1,-1,-1,-1,-1,-1,-1,-1,-1,-1,-1,6921,29211,-1,-1,-1,-1,-1,6778,-1,-1,
2227,-1,-1,-1,-1,-1,2621,-1,-1,-1,-1,-1,-1,-1,-1,-1,-1,-1,-1,-1,-1,-1,-1,-1,-1,-1,-1,-1,-1,-1,-1,-1,-1,-1,-1,-1,-1,-1,-1,-1,-1,-1,-1,-1,-1,-1,-1,-1,
-1,-1,-1,-1,-1,-1,1929,-1,-1,-1,-1,-1,-1,-1,-1,-1,-1,-1,-1,-1,-1,-1,-1,-1,-1,-1,-1,-1,-1,-1,-1,-1,-1,-1,-1,-1,-1,-1,-1,-1,-1,-1,-1,-1,-1,5659,-1,-1,
2212,-1,-1,-1,-1,-1,2636,-1,-1,-1,-1,-1,-1,-1,-1,-1,-1,-1,-1,-1,-1,-1,-1,-1,-1,-1,-1,-1,-1,-1,-1,-1,-1,-1,-1,-1,-1,-1,-1,-1,-1,-1,-1,-1,-1,-1,-1,-1,
-1,-1,-1,-1,-1,-1,1830,-1,-1,-1,-1,-1,-1,-1,-1,-1,-1,-1,-1,-1,-1,-1,-1,-1,-1,-1,-1,-1,-1,-1,-1,-1,-1,-1,-1,-1,-1,-1,-1,-1,-1,-1,-1,-1,-1,-1,-1,-1,
2373,2027,4059,8109,-1,-1,1717,19236,4269,15222,16727,19638,26581,-1,-1,-1,-1,-1,-1,3604,5256,9907,8837,-1,25871,-1,-1,-1,-1,-1,-1,-1,-1,-1,-1,-1,-1,-1,10418,-1,-1,-1,-1,-1,-1,5151,5474,11060,
2250,1969,3927,5303,-1,-1,2537,6947,3158,10820,-1,-1,-1,-1,-1,-1,-1,-1,-1,4480,6394,8847,-1,-1,-1,-1,-1,-1,-1,-1,-1,-1,-1,-1,-1,-1,-1,-1,-1,-1,-1,-1,-1,-1,-1,14280,14610,-1,
2415,1929,4081,-1,-1,-1,1583,-1,4371,-1,-1,-1,-1,-1,-1,-1,-1,-1,-1,3650,5269,7719,8633,-1,-1,-1,-1,-1,-1,-1,-1,-1,-1,-1,-1,-1,-1,-1,-1,-1,-1,-1,-1,-1,-1,-1,-1,-1,
2291,2019,3969,5923,-1,-1,2702,8642,3214,-1,-1,-1,-1,-1,-1,-1,-1,-1,-1,3982,5684,8137,8923,-1,-1,-1,-1,-1,-1,-1,-1,-1,-1,-1,-1,-1,-1,-1,10173,-1,-1,-1,-1,-1,-1,10236,-1,10882,
1916,1983,4033,-1,-1,-1,2186,-1,8648,-1,-1,-1,-1,-1,-1,-1,-1,-1,-1,3532,7111,10469,-1,-1,-1,-1,-1,-1,-1,-1,-1,-1,-1,-1,-1,-1,-1,-1,-1,-1,-1,-1,-1,-1,-1,3450,3818,-1,
1109,5701,2763,-1,-1,-1,2896,4854,-1,-1,-1,-1,-1,-1,-1,-1,-1,-1,-1,-1,-1,-1,-1,-1,-1,-1,-1,-1,-1,-1,-1,-1,-1,-1,-1,-1,-1,-1,-1,-1,-1,-1,-1,-1,-1,3641,3982,-1,
2208,1943,3875,17337,23191,-1,2579,8513,4033,7109,14167,23752,33274,33883,10970,13201,-1,-1,14315,3764,5335,7779,-1,11343,15499,18638,-1,19834,-1,-1,-1,26131,28495,29549,-1,21808,23799,24267,23416,28059,35129,28553,32763,-1,33259,15045,15414,-1,
1743,2903,3443,11199,-1,-1,2066,8179,3634,4786,15190,21942,-1,-1,10675,12075,14695,12871,24733,11434,-1,-1,-1,-1,-1,18582,-1,19646,-1,-1,-1,-1,-1,-1,-1,21571,23755,24401,6817,-1,19117,14079,-1,29027,24997,6021,6636,7866,
1848,1911,3513,5285,-1,-1,2021,11891,8421,19534,-1,-1,-1,-1,-1,-1,-1,-1,-1,3338,4930,7379,14673,-1,17979,-1,-1,-1,-1,-1,-1,-1,-1,-1,-1,-1,-1,-1,-1,-1,-1,-1,-1,-1,-1,6315,6648,-1,
2329,1903,4189,5233,-1,-1,2504,7847,3117,19955,-1,-1,-1,-1,-1,-1,-1,-1,-1,4448,6113,12765,8417,24441,14709,-1,-1,-1,-1,-1,-1,-1,-1,-1,-1,-1,-1,-1,6918,-1,-1,-1,-1,-1,-1,7153,-1,7638,
1911,1931,3705,-1,-1,-1,1981,11577,5490,9918,-1,-1,-1,-1,-1,-1,-1,-1,-1,3166,4787,7223,8193,-1,-1,-1,-1,-1,-1,-1,-1,-1,-1,-1,-1,-1,-1,-1,-1,-1,-1,-1,-1,-1,-1,3907,4234,-1,
1878,1937,3545,-1,-1,-1,2034,9764,6289,-1,-1,-1,-1,-1,-1,-1,-1,-1,-1,3352,5248,7689,8631,-1,-1,-1,-1,-1,-1,-1,-1,-1,-1,-1,-1,-1,-1,-1,-1,-1,-1,-1,-1,-1,-1,4420,-1,-1,
1973,2001,3637,4959,36301,-1,2201,16347,4303,14874,15741,22328,26333,27828,-1,-1,-1,-1,-1,6496,8128,11507,10413,33415,23363,24540,-1,29392,-1,-1,-1,33507,36599,41277,-1,32270,49531,52027,44125,52305,-1,55097,60599,-1,60605,4880,6608,48788,
1643,2807,3297,17749,-1,-1,1906,10016,3689,4306,8724,19693,35830,48348,12586,14041,16405,14725,21295,16176,-1,-1,-1,-1,-1,21033,25195,26468,-1,-1,-1,-1,-1,-1,-1,28491,30729,30907,9521,-1,15933,21145,-1,27123,33965,6440,6764,10138,
1864,1939,3531,5265,-1,-1,2031,14187,11169,23771,-1,-1,-1,-1,-1,-1,-1,-1,-1,3312,5029,7519,16491,-1,13619,-1,-1,-1,-1,-1,-1,-1,-1,-1,-1,-1,-1,-1,24056,-1,-1,-1,-1,-1,-1,5528,5866,24854,
2229,1925,3901,5437,-1,-1,2424,14195,3187,-1,-1,-1,-1,-1,-1,-1,-1,-1,-1,4736,9683,12133,12191,21617,17869,-1,-1,-1,-1,-1,-1,-1,-1,-1,-1,-1,-1,-1,6551,-1,-1,-1,-1,-1,-1,7044,10576,7520,
2331,1985,3995,-1,-1,-1,2764,8835,3146,-1,-1,-1,-1,-1,-1,-1,-1,-1,-1,4008,5663,8477,7971,14155,-1,-1,-1,-1,-1,-1,-1,-1,-1,-1,-1,-1,-1,-1,13456,-1,-1,-1,-1,-1,-1,5448,5768,14244,
1896,1969,3561,5527,-1,-1,2353,10504,8224,-1,-1,-1,-1,-1,-1,-1,-1,-1,-1,3566,5152,7615,10367,-1,-1,-1,-1,-1,-1,-1,-1,-1,-1,-1,-1,-1,-1,-1,-1,-1,-1,-1,-1,-1,-1,-1,-1,-1,
2220,1913,4283,-1,-1,-1,2529,14858,3355,14290,-1,-1,-1,-1,-1,-1,-1,-1,-1,3718,5835,8285,8121,-1,-1,-1,-1,-1,-1,-1,-1,-1,-1,-1,-1,-1,-1,-1,11716,-1,-1,-1,-1,-1,-1,5033,5348,12330,
1886,1963,3571,4731,-1,-1,2042,10682,7819,-1,-1,-1,-1,-1,-1,-1,-1,-1,-1,3866,5425,7923,8337,-1,-1,-1,-1,-1,-1,-1,-1,-1,-1,-1,-1,-1,-1,-1,-1,-1,-1,-1,-1,-1,-1,12436,-1,-1,
1674,2757,3331,42087,-1,-1,1911,13189,8627,15996,16592,18038,19001,22409,11991,13179,20635,18461,15079,3290,4975,7417,40843,11533,30055,20916,-1,22190,-1,-1,-1,-1,-1,-1,-1,27471,29227,30559,12497,25849,17159,19771,-1,21715,24827,5074,5464,22548,
2921,1965,4607,6757,41891,-1,3180,18919,2499,14691,18709,20573,26722,34536,8816,11065,13281,11095,-1,17562,19246,21753,-1,35867,25121,32376,-1,35550,-1,-1,-1,-1,-1,-1,-1,-1,-1,-1,6103,44867,11897,19749,-1,-1,-1,3571,4140,6960,
1629,2731,3295,-1,-1,-1,1866,-1,-1,-1,-1,-1,-1,-1,-1,-1,-1,-1,-1,3230,5203,7727,8617,-1,-1,-1,-1,-1,-1,-1,-1,-1,-1,-1,-1,-1,-1,-1,-1,-1,-1,-1,-1,-1,-1,4521,4850,-1,
1626,2777,3277,-1,-1,-1,1951,9475,8140,-1,-1,-1,-1,-1,-1,-1,-1,-1,-1,3234,5427,7959,8681,-1,-1,-1,-1,-1,-1,-1,-1,-1,-1,-1,-1,-1,-1,-1,-1,-1,-1,-1,-1,-1,-1,-1,-1,-1,
2143,1923,3801,5113,-1,-1,2386,-1,3947,-1,-1,-1,-1,-1,-1,-1,-1,-1,-1,4328,6693,-1,-1,-1,-1,-1,-1,-1,-1,-1,-1,-1,-1,-1,-1,-1,-1,-1,-1,-1,-1,-1,-1,-1,-1,-1,-1,-1,
1627,2787,3297,4681,-1,-1,1959,-1,-1,-1,-1,-1,-1,-1,-1,-1,-1,-1,-1,3850,5446,-1,-1,-1,-1,-1,-1,-1,-1,-1,-1,-1,-1,-1,-1,-1,-1,-1,-1,-1,-1,-1,-1,-1,-1,-1,-1,-1,
2974,1919,4781,6261,-1,-1,3112,8890,2390,7091,16251,-1,-1,-1,-1,-1,-1,-1,-1,4320,5888,9617,8217,20033,15543,-1,-1,-1,-1,-1,-1,-1,-1,-1,-1,-1,-1,-1,-1,-1,-1,-1,-1,-1,-1,23723,-1,-1,
2263,1937,3923,5439,-1,-1,2624,7457,3232,21235,23080,23574,-1,-1,-1,-1,-1,-1,-1,4578,6143,9039,8953,-1,15835,-1,-1,-1,-1,-1,-1,-1,-1,-1,-1,-1,-1,-1,-1,-1,-1,-1,-1,-1,-1,6871,7216,-1,
2277,1949,3943,5369,-1,-1,2546,9148,3224,12764,17075,-1,-1,-1,-1,-1,-1,-1,-1,5668,8999,12555,11947,-1,14945,-1,-1,-1,-1,-1,-1,-1,-1,-1,-1,-1,-1,-1,6415,-1,-1,-1,-1,-1,-1,7460,-1,7886,
1578,2709,3241,5461,-1,-1,1988,10457,8291,13424,-1,-1,-1,-1,-1,-1,-1,-1,-1,3278,5093,7545,13247,-1,13479,-1,-1,-1,-1,-1,-1,-1,-1,-1,-1,-1,-1,-1,-1,-1,-1,-1,-1,-1,-1,-1,-1,-1,
2328,1947,4361,5761,-1,-1,2562,-1,3146,-1,-1,-1,-1,-1,-1,-1,-1,-1,-1,3772,5406,8425,10049,-1,-1,-1,-1,-1,-1,-1,-1,-1,-1,-1,-1,-1,-1,-1,-1,-1,-1,-1,-1,-1,-1,-1,-1,-1,
2266,1913,3929,5207,-1,-1,2525,-1,3278,-1,-1,-1,-1,-1,-1,-1,-1,-1,-1,4332,6009,8907,8465,-1,-1,-1,-1,-1,-1,-1,-1,-1,-1,-1,-1,-1,-1,-1,10382,-1,-1,-1,-1,-1,-1,11934,-1,-1,
2766,2821,4439,5839,-1,-1,3104,-1,1859,-1,-1,-1,-1,-1,-1,-1,-1,-1,-1,-1,-1,-1,-1,-1,-1,-1,-1,-1,-1,-1,-1,-1,-1,-1,-1,-1,-1,-1,-1,-1,-1,-1,-1,-1,-1,6787,7102,-1,
2214,1929,3987,6123,-1,-1,2286,-1,3143,-1,-1,-1,-1,-1,-1,-1,-1,-1,-1,3996,7784,-1,-1,-1,-1,-1,-1,-1,-1,-1,-1,-1,-1,-1,-1,-1,-1,-1,-1,-1,-1,-1,-1,-1,-1,6027,6348,-1,
2026,1945,3687,-1,-1,-1,2102,12570,5897,11342,-1,-1,-1,-1,-1,-1,-1,-1,-1,3402,5036,7487,9647,-1,-1,-1,-1,-1,-1,-1,-1,-1,-1,-1,-1,-1,-1,-1,-1,-1,-1,-1,-1,-1,-1,-1,-1,-1,
1847,1911,3515,-1,-1,-1,2113,9132,6328,-1,-1,-1,-1,-1,-1,-1,-1,-1,-1,3318,4958,7391,8677,-1,-1,-1,-1,-1,-1,-1,-1,-1,-1,-1,-1,-1,-1,-1,-1,-1,-1,-1,-1,-1,-1,-1,-1,-1,
1639,2781,3305,4733,-1,-1,1989,8673,6940,-1,-1,-1,-1,-1,-1,-1,-1,-1,-1,4106,5706,8165,-1,-1,-1,-1,-1,-1,-1,-1,-1,-1,-1,-1,-1,-1,-1,-1,-1,-1,-1,-1,-1,-1,-1,-1,-1,-1,
2452,1921,4123,13823,-1,-1,2562,-1,4704,11134,-1,-1,-1,-1,-1,-1,-1,-1,-1,3800,5430,8487,-1,-1,-1,-1,-1,-1,-1,-1,-1,-1,-1,-1,-1,-1,-1,-1,14506,-1,-1,-1,-1,-1,-1,4054,4402,26390,
2948,1947,4633,5833,19595,-1,3098,10335,2504,4884,21668,-1,-1,-1,-1,-1,-1,-1,-1,7176,10939,14383,14075,-1,17135,12529,-1,13530,17328,-1,-1,-1,-1,-1,-1,15526,17347,20033,7972,-1,-1,-1,-1,-1,-1,8826,-1,9182,
2233,1947,3909,5277,-1,-1,2535,9487,3143,13838,-1,-1,-1,-1,18110,-1,-1,-1,-1,4442,7062,9511,15911,23729,15075,-1,-1,-1,-1,-1,-1,-1,-1,-1,-1,-1,-1,-1,-1,-1,-1,-1,-1,-1,-1,5199,5562,-1,
1651,2793,3319,-1,-1,-1,1961,9765,8344,-1,-1,-1,-1,-1,-1,-1,-1,-1,-1,3426,5558,8061,-1,-1,-1,-1,-1,-1,-1,-1,-1,-1,-1,-1,-1,-1,-1,-1,-1,-1,-1,-1,-1,-1,-1,-1,-1,-1,
2399,1943,4105,-1,-1,-1,2554,11812,3597,5477,-1,-1,-1,-1,-1,-1,-1,-1,-1,3982,5584,8279,-1,-1,-1,-1,-1,-1,-1,-1,-1,-1,-1,-1,-1,-1,-1,-1,-1,-1,-1,-1,-1,-1,-1,-1,-1,-1,
2916,1919,4589,6509,-1,-1,3009,-1,2563,9314,-1,-1,-1,-1,-1,-1,-1,-1,-1,4210,5836,-1,8303,-1,-1,-1,-1,-1,-1,-1,-1,-1,-1,-1,-1,-1,-1,-1,-1,-1,-1,-1,-1,-1,-1,-1,-1,-1,
2309,1979,3975,-1,-1,-1,3250,-1,3121,-1,-1,-1,-1,-1,-1,-1,-1,-1,-1,4474,6064,-1,9137,-1,-1,-1,-1,-1,-1,-1,-1,-1,-1,-1,-1,-1,-1,-1,-1,-1,-1,-1,-1,-1,-1,5439,5818,-1,
2896,1921,4565,6241,24975,-1,3036,12568,2491,6510,18425,-1,-1,-1,23108,-1,34897,25237,-1,4216,10671,-1,-1,-1,22409,12097,-1,13038,14890,-1,-1,-1,-1,-1,-1,-1,-1,-1,7768,43071,30573,26637,-1,36975,32639,8209,-1,8578,
1886,1981,3553,4751,34361,-1,2019,12723,10522,-1,-1,-1,-1,-1,-1,-1,-1,-1,-1,3818,5740,8221,-1,-1,17847,21542,-1,22484,28534,31039,-1,-1,-1,-1,-1,-1,-1,-1,-1,-1,-1,-1,-1,-1,-1,5715,6266,-1,
1649,2775,3335,4811,-1,-1,2077,-1,4172,5899,-1,-1,-1,-1,15852,-1,20429,18227,-1,13430,-1,-1,-1,-1,-1,-1,-1,-1,-1,-1,-1,-1,-1,-1,-1,-1,-1,-1,7562,44867,-1,21299,-1,-1,27153,8181,10400,8542,
2257,1937,3911,5245,24357,-1,2492,-1,3211,10854,-1,-1,-1,-1,-1,-1,-1,-1,-1,4562,6189,8659,-1,-1,21413,20079,-1,21006,25952,-1,-1,-1,-1,-1,-1,27202,-1,31809,22353,-1,-1,27535,-1,-1,42163,9687,-1,-1,
3098,1973,4751,6707,25643,-1,3229,7534,2547,12880,22064,25415,27328,-1,19842,22775,24705,22671,29087,4604,6404,8849,9349,-1,13289,15190,-1,18782,45672,-1,-1,32626,-1,36847,-1,22727,25403,25247,25168,41355,-1,30289,47447,-1,36173,5701,6058,-1,
2864,1905,4563,6221,31333,-1,3008,8060,2491,6778,25640,26263,-1,-1,21031,22885,24973,23429,27893,4208,5770,8779,8203,-1,-1,11715,-1,12660,14946,-1,-1,43422,-1,-1,-1,21164,23055,23655,8890,39689,28129,24649,-1,36249,29367,9836,23624,10216,
1899,1947,5577,10005,-1,-1,2190,-1,4147,12192,-1,-1,-1,-1,-1,-1,-1,-1,-1,3394,5051,7515,18435,-1,28277,-1,-1,-1,-1,-1,-1,-1,-1,-1,-1,-1,-1,-1,14494,-1,-1,-1,-1,-1,-1,4439,4766,16228,
2874,1947,4541,44695,-1,-1,2968,7989,2488,5274,15258,-1,-1,-1,-1,-1,-1,-1,-1,4224,5788,9553,8097,25511,19553,-1,-1,-1,-1,-1,-1,-1,-1,-1,-1,-1,-1,-1,6756,-1,-1,-1,-1,-1,-1,7350,9742,7730,
1620,2787,3279,11999,17563,-1,1968,8633,3226,4372,12233,24242,-1,-1,-1,-1,-1,-1,-1,11148,13069,-1,-1,-1,-1,13208,-1,14218,16140,-1,-1,-1,-1,-1,-1,16261,-1,18851,6585,13913,-1,-1,18445,-1,-1,5362,5728,7206,
1905,1929,3589,5371,-1,-1,2053,9778,10310,13220,-1,-1,-1,-1,-1,-1,-1,-1,-1,3372,4949,7401,-1,15311,19803,-1,-1,-1,-1,-1,-1,-1,-1,-1,-1,-1,-1,-1,-1,-1,-1,-1,-1,-1,-1,6538,7868,-1,
1766,2909,3449,7256,-1,-1,2084,12878,4218,16279,-1,-1,-1,-1,-1,-1,-1,-1,-1,4485,6215,-1,-1,-1,-1,-1,-1,-1,-1,-1,-1,-1,-1,-1,-1,-1,-1,-1,-1,-1,-1,-1,-1,-1,-1,-1,-1,-1,
2615,2074,4279,7101,-1,-1,2299,-1,4240,8722,-1,-1,-1,-1,-1,-1,-1,-1,-1,4955,6616,12254,-1,-1,-1,-1,-1,-1,-1,-1,-1,-1,-1,-1,-1,-1,-1,-1,-1,-1,-1,-1,-1,-1,-1,-1,-1,-1,
1871,1959,3541,4893,-1,-1,2189,13726,10107,-1,-1,-1,-1,-1,-1,-1,-1,-1,-1,3888,5507,7953,11421,-1,-1,-1,-1,-1,-1,-1,-1,-1,-1,-1,-1,-1,-1,-1,-1,-1,-1,-1,-1,-1,-1,-1,-1,-1,
1877,1971,3531,5347,-1,-1,2239,10824,10432,-1,-1,-1,-1,-1,-1,-1,-1,-1,-1,3428,5031,7467,8429,-1,-1,-1,-1,-1,-1,-1,-1,-1,-1,-1,-1,-1,-1,-1,-1,-1,-1,-1,-1,-1,-1,5605,5936,-1,
2338,1917,4013,5345,-1,-1,2526,-1,3251,-1,-1,-1,-1,-1,-1,-1,-1,-1,-1,4380,10299,12811,13957,-1,-1,-1,-1,-1,-1,-1,-1,-1,-1,-1,-1,-1,-1,-1,7656,-1,-1,-1,-1,-1,-1,5742,6070,8300,
1844,1939,3511,5239,-1,-1,1932,15363,11787,-1,-1,-1,-1,-1,-1,-1,-1,-1,-1,3270,4904,7569,14731,-1,-1,-1,-1,-1,-1,-1,-1,-1,-1,-1,-1,-1,-1,-1,-1,-1,-1,-1,-1,-1,-1,6715,7136,-1,
2944,1965,4617,6243,-1,-1,3106,6975,2517,-1,-1,-1,-1,-1,-1,-1,-1,-1,-1,4294,5887,8325,9665,-1,-1,-1,-1,-1,-1,-1,-1,-1,-1,-1,-1,-1,-1,-1,-1,-1,-1,-1,-1,-1,-1,12506,-1,-1,
2997,1997,4659,6375,-1,-1,3120,7286,2606,-1,-1,-1,-1,-1,-1,-1,-1,-1,-1,4334,5956,8743,9861,-1,-1,-1,-1,-1,-1,-1,-1,-1,-1,-1,-1,-1,-1,-1,-1,-1,-1,-1,-1,-1,-1,-1,-1,-1,
1917,1969,3585,13075,24783,-1,2215,15074,4802,12724,22530,25465,32340,36396,16805,19067,-1,63131,19969,3370,5299,7741,41479,-1,-1,20159,-1,21278,23728,26723,-1,-1,-1,-1,-1,29650,33311,33203,27571,-1,35725,32213,-1,-1,36955,3775,4116,61120,
2243,2149,3909,5345,-1,-1,1262,2403,3581,9318,23547,37989,47044,52110,6793,8201,10519,8951,37467,17894,52641,55857,55015,64437,-1,-1,-1,-1,-1,-1,-1,-1,-1,-1,-1,-1,-1,-1,7355,-1,23543,19387,-1,32891,28309,10082,16428,10438,
1934,1937,3587,5235,-1,-1,2121,11772,9448,20092,26951,30446,31215,32588,-1,-1,-1,-1,-1,3288,4844,7299,20227,23153,17873,20760,-1,23136,26250,-1,-1,-1,-1,-1,-1,30880,32649,33353,36057,-1,-1,-1,-1,-1,-1,5498,5844,-1,
2395,1969,4051,5339,23557,-1,2553,10930,3199,19456,27024,31569,-1,-1,-1,-1,-1,-1,-1,5898,10043,15639,-1,30751,22883,13370,-1,14330,16148,-1,-1,-1,-1,-1,-1,27788,29811,30501,6838,-1,-1,-1,-1,-1,-1,6930,9474,7456,
1888,1947,3543,-1,-1,-1,2012,7365,5433,-1,-1,-1,-1,-1,-1,-1,-1,-1,-1,3248,4796,7253,8297,-1,-1,-1,-1,-1,-1,-1,-1,-1,-1,-1,-1,-1,-1,-1,-1,-1,-1,-1,-1,-1,-1,9279,9624,-1,
1592,2715,3249,-1,-1,-1,1874,-1,6938,-1,-1,-1,-1,-1,-1,-1,-1,-1,-1,3148,4730,7165,8745,-1,-1,-1,-1,-1,-1,-1,-1,-1,-1,-1,-1,-1,-1,-1,-1,-1,-1,-1,-1,-1,-1,-1,-1,-1,
2122,1913,3837,4845,-1,-1,1614,-1,14356,-1,-1,-1,-1,-1,-1,-1,-1,-1,-1,3338,4887,7331,10937,-1,-1,-1,-1,-1,-1,-1,-1,-1,-1,-1,-1,-1,-1,-1,-1,-1,-1,-1,-1,-1,-1,9008,9332,-1,
1937,1917,3647,7243,-1,-1,1981,20327,4070,17166,-1,-1,-1,-1,-1,-1,-1,-1,-1,3156,4731,8807,8337,-1,-1,-1,-1,-1,-1,-1,-1,-1,-1,-1,-1,-1,-1,-1,10482,-1,-1,-1,-1,-1,-1,10762,-1,11192,
2278,1925,3951,5365,34081,-1,2563,18393,3188,23629,43644,-1,-1,-1,-1,-1,-1,-1,-1,4482,6152,10167,8469,-1,23873,29629,-1,30714,32886,35343,-1,-1,-1,-1,-1,33241,38059,35945,7125,-1,-1,-1,-1,-1,-1,7602,10440,7946,
2424,1899,4099,9597,-1,-1,1828,23801,4268,21501,29642,34763,36774,38329,-1,-1,-1,-1,-1,3648,5331,7765,8081,-1,28185,33857,-1,34802,36844,44605,-1,-1,-1,-1,-1,-1,-1,-1,36400,-1,-1,-1,-1,-1,-1,5922,6236,38260,
1625,2741,3279,-1,-1,-1,1872,13149,10247,13399,-1,-1,-1,-1,-1,-1,-1,-1,-1,3202,5015,7463,14247,-1,14873,-1,-1,-1,-1,-1,-1,-1,-1,-1,-1,-1,-1,-1,-1,-1,-1,-1,-1,-1,-1,4948,-1,-1,
2925,1929,4587,6389,-1,-1,3047,11207,2512,7966,8524,15456,-1,-1,-1,-1,-1,-1,-1,6982,10612,13067,-1,-1,17013,-1,-1,-1,-1,-1,-1,-1,-1,-1,-1,-1,-1,-1,6866,-1,-1,-1,-1,-1,-1,7140,-1,7498,
2881,1934,4554,6171,-1,-1,3042,-1,2446,-1,-1,-1,-1,-1,-1,-1,-1,-1,-1,4230,5854,8319,9294,-1,-1,-1,-1,-1,-1,-1,-1,-1,-1,-1,-1,-1,-1,-1,-1,-1,-1,-1,-1,-1,-1,-1,-1,-1,
2494,1974,4154,5296,-1,-1,2535,-1,3146,-1,-1,-1,-1,-1,-1,-1,-1,-1,-1,4390,6440,9224,8749,-1,-1,-1,-1,-1,-1,-1,-1,-1,-1,-1,-1,-1,-1,-1,-1,-1,-1,-1,-1,-1,-1,5768,6130,-1,
1634,2624,3299,-1,-1,-1,2257,3473,3986,-1,-1,-1,-1,-1,-1,-1,-1,-1,-1,-1,-1,-1,-1,-1,-1,-1,-1,-1,-1,-1,-1,-1,-1,-1,-1,-1,-1,-1,-1,-1,-1,-1,-1,-1,-1,4480,4990,-1,
1154,3414,2834,-1,-1,-1,-1,-1,-1,-1,-1,-1,-1,-1,-1,-1,-1,-1,-1,-1,-1,-1,-1,-1,-1,-1,-1,-1,-1,-1,-1,-1,-1,-1,-1,-1,-1,-1,-1,-1,-1,-1,-1,-1,-1,-1,-1,-1,
1640,2659,3304,6781,-1,-1,3839,-1,3493,-1,-1,-1,-1,-1,-1,-1,-1,-1,-1,6095,-1,-1,-1,-1,-1,-1,-1,-1,-1,-1,-1,-1,-1,-1,-1,-1,-1,-1,-1,-1,-1,-1,-1,-1,-1,-1,-1,-1,
2608,2014,4459,5566,-1,-1,1639,2503,3693,5900,-1,-1,-1,-1,-1,-1,-1,-1,-1,6710,8723,-1,-1,-1,-1,-1,-1,-1,-1,-1,-1,-1,-1,-1,-1,-1,-1,-1,-1,-1,-1,-1,-1,-1,-1,-1,-1,-1,
2569,2014,4374,5996,-1,-1,3244,-1,3790,-1,-1,-1,-1,-1,-1,-1,-1,-1,-1,4980,6995,-1,-1,-1,-1,-1,-1,-1,-1,-1,-1,-1,-1,-1,-1,-1,-1,-1,-1,-1,-1,-1,-1,-1,-1,-1,-1,-1,
3049,2004,4709,6261,-1,-1,3349,-1,2519,9320,-1,-1,-1,-1,11073,-1,-1,13676,-1,9210,-1,-1,-1,-1,-1,-1,-1,-1,-1,-1,-1,-1,-1,-1,-1,-1,-1,-1,17547,-1,-1,-1,-1,-1,-1,11487,-1,-1,
2391,2004,4049,5786,-1,-1,2774,-1,4084,-1,-1,-1,-1,-1,-1,-1,-1,-1,-1,-1,-1,-1,-1,-1,-1,-1,-1,-1,-1,-1,-1,-1,-1,-1,-1,-1,-1,-1,6198,-1,-1,-1,-1,-1,-1,2973,8735,-1,
2591,3799,4259,9156,-1,-1,5748,-1,2025,-1,-1,-1,-1,-1,-1,-1,-1,-1,-1,-1,-1,-1,-1,-1,-1,-1,-1,-1,-1,-1,-1,-1,-1,-1,-1,-1,-1,-1,-1,-1,-1,-1,-1,-1,-1,3703,4040,-1,
3061,1999,5769,7026,-1,-1,3180,-1,2953,4451,-1,-1,-1,-1,-1,-1,-1,-1,-1,4715,8181,-1,10499,-1,-1,-1,-1,-1,-1,-1,-1,-1,-1,-1,-1,-1,-1,-1,9211,-1,-1,-1,-1,-1,-1,9475,-1,9840,
2404,1984,5014,5901,-1,-1,2333,-1,3429,-1,-1,-1,-1,-1,-1,-1,-1,-1,-1,3810,5405,7974,-1,-1,-1,-1,-1,-1,-1,-1,-1,-1,-1,-1,-1,-1,-1,-1,-1,-1,-1,-1,-1,-1,-1,-1,-1,-1,
3809,2034,5534,6581,-1,-1,3354,8613,3248,-1,-1,-1,-1,-1,-1,-1,-1,-1,-1,5105,6850,11034,9689,-1,-1,-1,-1,-1,-1,-1,-1,-1,-1,-1,-1,-1,-1,-1,-1,-1,-1,-1,-1,-1,-1,8676,9010,-1,
3490,1969,5154,6246,-1,-1,2931,7700,2669,-1,-1,-1,-1,-1,-1,-1,-1,-1,-1,5525,7528,9994,9929,-1,-1,-1,-1,-1,-1,-1,-1,-1,-1,-1,-1,-1,-1,-1,-1,-1,-1,-1,-1,-1,-1,6646,7125,-1,
1665,2999,3464,7496,-1,-1,2004,11429,4714,9789,-1,-1,-1,-1,-1,-1,-1,-1,-1,5330,7060,9979,9374,-1,-1,-1,-1,-1,-1,-1,-1,-1,-1,-1,-1,-1,-1,-1,-1,-1,-1,-1,-1,-1,-1,-1,-1,-1,
2780,2029,4444,7371,-1,-1,2178,-1,4895,11499,-1,-1,-1,-1,-1,-1,-1,-1,-1,5295,6865,9314,12099,-1,-1,-1,-1,-1,-1,-1,-1,-1,-1,-1,-1,-1,-1,-1,-1,-1,-1,-1,-1,-1,-1,3799,4125,-1,
2984,2019,4654,6411,-1,-1,3121,-1,2531,4375,-1,-1,-1,-1,-1,-1,-1,-1,-1,4345,-1,-1,-1,-1,-1,-1,-1,-1,-1,-1,-1,-1,-1,-1,-1,-1,-1,-1,-1,-1,-1,-1,-1,-1,-1,8273,-1,-1,
1691,2859,3364,-1,-1,-1,2047,-1,4100,-1,-1,-1,-1,-1,-1,-1,-1,-1,-1,4790,-1,-1,-1,-1,-1,-1,-1,-1,-1,-1,-1,-1,-1,-1,-1,-1,-1,-1,-1,-1,-1,-1,-1,-1,-1,6249,6590,-1,
3016,1999,4684,6431,-1,-1,3164,8812,2595,7899,-1,-1,-1,-1,-1,-1,-1,-1,-1,4445,6409,11189,8714,-1,-1,-1,-1,-1,-1,-1,-1,-1,-1,-1,-1,-1,-1,-1,-1,-1,-1,-1,-1,-1,-1,-1,-1,-1,
2375,2019,4684,11096,-1,-1,2571,7761,3750,-1,-1,-1,-1,-1,-1,-1,-1,-1,-1,4120,5704,8964,8249,-1,-1,-1,-1,-1,-1,-1,-1,-1,-1,-1,-1,-1,-1,-1,-1,-1,-1,-1,-1,-1,-1,7058,7380,-1,
1875,1949,3564,32921,-1,-1,8186,24393,3029,4419,-1,-1,-1,-1,-1,-1,-1,-1,-1,-1,-1,-1,-1,-1,-1,-1,-1,-1,-1,-1,-1,-1,-1,-1,-1,-1,-1,-1,-1,-1,-1,-1,-1,-1,-1,9424,-1,-1,
3100,2034,4779,6236,-1,-1,3413,-1,2702,5585,-1,-1,-1,-1,-1,-1,-1,-1,-1,5560,-1,-1,-1,-1,-1,-1,-1,-1,-1,-1,-1,-1,-1,-1,-1,-1,-1,-1,-1,-1,-1,-1,-1,-1,-1,-1,-1,-1,
2220,1984,3979,6206,-1,-1,2638,-1,3260,-1,-1,-1,-1,-1,-1,-1,-1,-1,-1,4120,5689,12154,8159,-1,-1,-1,-1,-1,-1,-1,-1,-1,-1,-1,-1,-1,-1,-1,-1,-1,-1,-1,-1,-1,-1,12769,13105,-1,
2228,2004,3894,6486,-1,-1,3148,-1,3323,-1,-1,-1,-1,-1,-1,-1,-1,-1,-1,4465,6074,9759,8384,-1,-1,-1,-1,-1,-1,-1,-1,-1,-1,-1,-1,-1,-1,-1,-1,-1,-1,-1,-1,-1,-1,-1,-1,-1,
2910,1909,4584,6191,-1,-1,3027,-1,2499,-1,-1,-1,-1,-1,-1,-1,-1,-1,-1,4250,6234,-1,8649,-1,-1,-1,-1,-1,-1,-1,-1,-1,-1,-1,-1,-1,-1,-1,-1,-1,-1,-1,-1,-1,-1,-1,-1,-1,
1686,2814,3349,5651,-1,-1,1997,-1,-1,-1,-1,-1,-1,-1,-1,-1,-1,-1,-1,3355,5010,7449,-1,-1,-1,-1,-1,-1,-1,-1,-1,-1,-1,-1,-1,-1,-1,-1,-1,-1,-1,-1,-1,-1,-1,6404,6770,-1,
2835,1924,4504,5671,-1,-1,2963,15137,2415,13827,-1,-1,-1,-1,-1,-1,-1,-1,-1,4610,6556,9009,10049,-1,-1,-1,-1,-1,-1,-1,-1,-1,-1,-1,-1,-1,-1,-1,15051,-1,-1,-1,-1,-1,-1,15027,17085,15685,
2475,2049,4184,6841,-1,-1,3576,9956,3323,-1,-1,-1,-1,-1,-1,-1,-1,-1,-1,4820,7640,10109,10974,-1,-1,-1,-1,-1,-1,-1,-1,-1,-1,-1,-1,-1,-1,-1,-1,-1,-1,-1,-1,-1,-1,5530,5875,-1,
